<svg xmlns="http://www.w3.org/2000/svg" viewBox="21269.75 3143.75 260.803 177.5">
  <defs>
    <style>
      .cls-1, .cls-4 {
        fill: none;
      }

      .cls-2 {
        font-size: 15px;
        font-family: Quicksand-Regular, Quicksand;
      }

      .cls-3 {
        fill: #c6c6c6;
        stroke: #1d1d1b;
      }

      .cls-3, .cls-4 {
        stroke-linecap: round;
        stroke-linejoin: round;
        stroke-width: 0.5px;
      }

      .cls-4 {
        stroke: #000;
      }

      .cls-5 {
        fill: #1d1d1b;
      }
    </style>
  </defs>
  <g id="less_than_2_meter_flue" data-name="less than 2 meter flue" transform="translate(21269.699 3143.7)">
    <rect id="Rectangle_855" data-name="Rectangle 855" class="cls-1" width="75.702" height="48.865" transform="translate(96.789 5.419)"/>
    <g id="Group" transform="translate(97.415 1.441)">
      <text id="more_than_" data-name="more than " class="cls-2" transform="translate(0 15)"><tspan x="0" y="0">more than </tspan></text>
      <text id="_2m" data-name="2m" class="cls-2" transform="translate(25.751 33.615)"><tspan x="0" y="0">2m</tspan></text>
    </g>
    <rect id="Rectangle_856" data-name="Rectangle 856" class="cls-3" width="58.328" height="174.673" transform="translate(202.276 2.627)"/>
    <rect id="Rectangle_857" data-name="Rectangle 857" class="cls-3" width="55.691" height="174.673" transform="translate(0.3 0.3)"/>
    <path id="Path_313" data-name="Path 313" class="cls-4" d="M135.327,50.7H108.8l5.74,10.859h20.787" transform="translate(59.813 27.784)"/>
    <path id="Path_314" data-name="Path 314" class="cls-4" d="M125.9,62.386l3.568,2.172V49.2L125.9,51.372Z" transform="translate(69.24 26.957)"/>
    <rect id="Rectangle_858" data-name="Rectangle 858" class="cls-4" width="3.568" height="19.856" transform="translate(198.708 73.985)"/>
    <g id="Group_1010" data-name="Group 1010" transform="translate(55.991 39.702)">
      <g id="Group_1009" data-name="Group 1009">
        <g id="Group_1008" data-name="Group 1008">
          <g id="Group_968" data-name="Group 968">
            <g id="Group_967" data-name="Group 967">
              <g id="Group_966" data-name="Group 966">
                <rect id="Rectangle_859" data-name="Rectangle 859" class="cls-1" width="10.394" height="11.635"/>
              </g>
              <rect id="Rectangle_860" data-name="Rectangle 860" class="cls-5" width="2.017" height="1.241" transform="translate(7.756 5.429)"/>
              <rect id="Rectangle_861" data-name="Rectangle 861" class="cls-5" width="2.017" height="1.241" transform="translate(4.188 5.429)"/>
              <rect id="Rectangle_862" data-name="Rectangle 862" class="cls-5" width="2.017" height="1.241" transform="translate(0.776 5.429)"/>
            </g>
          </g>
          <g id="Group_971" data-name="Group 971" transform="translate(10.394)">
            <g id="Group_970" data-name="Group 970">
              <g id="Group_969" data-name="Group 969">
                <rect id="Rectangle_863" data-name="Rectangle 863" class="cls-1" width="10.394" height="11.635"/>
              </g>
              <rect id="Rectangle_864" data-name="Rectangle 864" class="cls-5" width="2.017" height="1.241" transform="translate(7.756 5.429)"/>
              <rect id="Rectangle_865" data-name="Rectangle 865" class="cls-5" width="2.017" height="1.241" transform="translate(4.344 5.429)"/>
              <rect id="Rectangle_866" data-name="Rectangle 866" class="cls-5" width="2.017" height="1.241" transform="translate(0.776 5.429)"/>
            </g>
          </g>
          <g id="Group_974" data-name="Group 974" transform="translate(20.787)">
            <g id="Group_973" data-name="Group 973">
              <g id="Group_972" data-name="Group 972">
                <rect id="Rectangle_867" data-name="Rectangle 867" class="cls-1" width="10.394" height="11.635"/>
              </g>
              <rect id="Rectangle_868" data-name="Rectangle 868" class="cls-5" width="2.017" height="1.241" transform="translate(7.756 5.429)"/>
              <rect id="Rectangle_869" data-name="Rectangle 869" class="cls-5" width="2.017" height="1.241" transform="translate(4.344 5.429)"/>
              <rect id="Rectangle_870" data-name="Rectangle 870" class="cls-5" width="2.017" height="1.241" transform="translate(0.931 5.429)"/>
            </g>
          </g>
          <g id="Group_977" data-name="Group 977" transform="translate(31.336)">
            <g id="Group_976" data-name="Group 976">
              <g id="Group_975" data-name="Group 975">
                <rect id="Rectangle_871" data-name="Rectangle 871" class="cls-1" width="10.394" height="11.635"/>
              </g>
              <rect id="Rectangle_872" data-name="Rectangle 872" class="cls-5" width="2.017" height="1.241" transform="translate(7.756 5.429)"/>
              <rect id="Rectangle_873" data-name="Rectangle 873" class="cls-5" width="2.017" height="1.241" transform="translate(4.188 5.429)"/>
              <rect id="Rectangle_874" data-name="Rectangle 874" class="cls-5" width="2.017" height="1.241" transform="translate(0.776 5.429)"/>
            </g>
          </g>
          <g id="Group_980" data-name="Group 980" transform="translate(41.729)">
            <g id="Group_979" data-name="Group 979">
              <g id="Group_978" data-name="Group 978">
                <rect id="Rectangle_875" data-name="Rectangle 875" class="cls-1" width="10.394" height="11.635"/>
              </g>
              <rect id="Rectangle_876" data-name="Rectangle 876" class="cls-5" width="2.017" height="1.241" transform="translate(7.756 5.429)"/>
              <rect id="Rectangle_877" data-name="Rectangle 877" class="cls-5" width="2.017" height="1.241" transform="translate(4.344 5.429)"/>
              <rect id="Rectangle_878" data-name="Rectangle 878" class="cls-5" width="2.017" height="1.241" transform="translate(0.776 5.429)"/>
            </g>
          </g>
          <g id="Group_983" data-name="Group 983" transform="translate(52.278)">
            <g id="Group_982" data-name="Group 982">
              <g id="Group_981" data-name="Group 981">
                <rect id="Rectangle_879" data-name="Rectangle 879" class="cls-1" width="10.394" height="11.635"/>
              </g>
              <rect id="Rectangle_880" data-name="Rectangle 880" class="cls-5" width="2.017" height="1.241" transform="translate(7.601 5.429)"/>
              <rect id="Rectangle_881" data-name="Rectangle 881" class="cls-5" width="2.017" height="1.241" transform="translate(4.188 5.429)"/>
              <rect id="Rectangle_882" data-name="Rectangle 882" class="cls-5" width="2.017" height="1.241" transform="translate(0.776 5.429)"/>
            </g>
          </g>
          <g id="Group_986" data-name="Group 986" transform="translate(62.671)">
            <g id="Group_985" data-name="Group 985">
              <g id="Group_984" data-name="Group 984">
                <rect id="Rectangle_883" data-name="Rectangle 883" class="cls-1" width="10.394" height="11.635"/>
              </g>
              <rect id="Rectangle_884" data-name="Rectangle 884" class="cls-5" width="2.017" height="1.241" transform="translate(7.756 5.429)"/>
              <rect id="Rectangle_885" data-name="Rectangle 885" class="cls-5" width="2.017" height="1.241" transform="translate(4.188 5.429)"/>
              <rect id="Rectangle_886" data-name="Rectangle 886" class="cls-5" width="2.017" height="1.241" transform="translate(0.776 5.429)"/>
            </g>
          </g>
          <g id="Group_989" data-name="Group 989" transform="translate(73.065)">
            <g id="Group_988" data-name="Group 988">
              <g id="Group_987" data-name="Group 987">
                <rect id="Rectangle_887" data-name="Rectangle 887" class="cls-1" width="10.394" height="11.635"/>
              </g>
              <rect id="Rectangle_888" data-name="Rectangle 888" class="cls-5" width="2.017" height="1.241" transform="translate(7.756 5.429)"/>
              <rect id="Rectangle_889" data-name="Rectangle 889" class="cls-5" width="2.017" height="1.241" transform="translate(4.344 5.429)"/>
              <rect id="Rectangle_890" data-name="Rectangle 890" class="cls-5" width="2.017" height="1.241" transform="translate(0.776 5.429)"/>
            </g>
          </g>
          <g id="Group_992" data-name="Group 992" transform="translate(83.614)">
            <g id="Group_991" data-name="Group 991">
              <g id="Group_990" data-name="Group 990">
                <rect id="Rectangle_891" data-name="Rectangle 891" class="cls-1" width="10.394" height="11.635"/>
              </g>
              <rect id="Rectangle_892" data-name="Rectangle 892" class="cls-5" width="2.017" height="1.241" transform="translate(7.756 5.429)"/>
              <rect id="Rectangle_893" data-name="Rectangle 893" class="cls-5" width="2.017" height="1.241" transform="translate(4.188 5.429)"/>
              <rect id="Rectangle_894" data-name="Rectangle 894" class="cls-5" width="2.017" height="1.241" transform="translate(0.776 5.429)"/>
            </g>
          </g>
          <g id="Group_995" data-name="Group 995" transform="translate(94.007)">
            <g id="Group_994" data-name="Group 994">
              <g id="Group_993" data-name="Group 993">
                <rect id="Rectangle_895" data-name="Rectangle 895" class="cls-1" width="10.394" height="11.635"/>
              </g>
              <rect id="Rectangle_896" data-name="Rectangle 896" class="cls-5" width="2.017" height="1.241" transform="translate(7.756 5.429)"/>
              <rect id="Rectangle_897" data-name="Rectangle 897" class="cls-5" width="2.017" height="1.241" transform="translate(4.344 5.429)"/>
              <rect id="Rectangle_898" data-name="Rectangle 898" class="cls-5" width="2.017" height="1.241" transform="translate(0.776 5.429)"/>
            </g>
          </g>
          <g id="Group_998" data-name="Group 998" transform="translate(104.401)">
            <g id="Group_997" data-name="Group 997">
              <g id="Group_996" data-name="Group 996">
                <rect id="Rectangle_899" data-name="Rectangle 899" class="cls-1" width="10.394" height="11.635"/>
              </g>
              <rect id="Rectangle_900" data-name="Rectangle 900" class="cls-5" width="2.017" height="1.241" transform="translate(7.756 5.429)"/>
              <rect id="Rectangle_901" data-name="Rectangle 901" class="cls-5" width="2.017" height="1.241" transform="translate(4.344 5.429)"/>
              <rect id="Rectangle_902" data-name="Rectangle 902" class="cls-5" width="2.017" height="1.241" transform="translate(0.931 5.429)"/>
            </g>
          </g>
          <g id="Group_1001" data-name="Group 1001" transform="translate(114.949)">
            <g id="Group_1000" data-name="Group 1000">
              <g id="Group_999" data-name="Group 999">
                <rect id="Rectangle_903" data-name="Rectangle 903" class="cls-1" width="10.394" height="11.635"/>
              </g>
              <rect id="Rectangle_904" data-name="Rectangle 904" class="cls-5" width="2.017" height="1.241" transform="translate(7.756 5.429)"/>
              <rect id="Rectangle_905" data-name="Rectangle 905" class="cls-5" width="2.017" height="1.241" transform="translate(4.188 5.429)"/>
              <rect id="Rectangle_906" data-name="Rectangle 906" class="cls-5" width="2.017" height="1.241" transform="translate(0.776 5.429)"/>
            </g>
          </g>
          <g id="Group_1004" data-name="Group 1004" transform="translate(125.343)">
            <g id="Group_1003" data-name="Group 1003">
              <g id="Group_1002" data-name="Group 1002">
                <rect id="Rectangle_907" data-name="Rectangle 907" class="cls-1" width="10.394" height="11.635"/>
              </g>
              <rect id="Rectangle_908" data-name="Rectangle 908" class="cls-5" width="2.017" height="1.241" transform="translate(7.756 5.429)"/>
              <rect id="Rectangle_909" data-name="Rectangle 909" class="cls-5" width="2.017" height="1.241" transform="translate(4.344 5.429)"/>
              <rect id="Rectangle_910" data-name="Rectangle 910" class="cls-5" width="2.017" height="1.241" transform="translate(0.776 5.429)"/>
            </g>
          </g>
          <g id="Group_1007" data-name="Group 1007" transform="translate(135.891)">
            <g id="Group_1006" data-name="Group 1006">
              <g id="Group_1005" data-name="Group 1005">
                <rect id="Rectangle_911" data-name="Rectangle 911" class="cls-1" width="10.394" height="11.635"/>
              </g>
              <rect id="Rectangle_912" data-name="Rectangle 912" class="cls-5" width="2.017" height="1.241" transform="translate(7.601 5.429)"/>
              <rect id="Rectangle_913" data-name="Rectangle 913" class="cls-5" width="2.017" height="1.241" transform="translate(4.188 5.429)"/>
              <rect id="Rectangle_914" data-name="Rectangle 914" class="cls-5" width="2.017" height="1.241" transform="translate(0.776 5.429)"/>
            </g>
          </g>
        </g>
      </g>
    </g>
  </g>
</svg>
