<svg xmlns="http://www.w3.org/2000/svg" xmlns:xlink="http://www.w3.org/1999/xlink" viewBox="-7791.042 -3370.609 44.642 43.94">
  <defs>
    <style>
      .cls-1 {
        fill: #ea495c;
      }

      .cls-2 {
        fill: #fff;
      }

      .cls-3 {
        filter: url(#Rectangle_1167);
      }
    </style>
    <filter id="Rectangle_1167" x="-7791.042" y="-3370.609" width="44.642" height="43.94" filterUnits="userSpaceOnUse">
      <feOffset dy="3" input="SourceAlpha"/>
      <feGaussianBlur stdDeviation="3" result="blur"/>
      <feFlood flood-opacity="0.161"/>
      <feComposite operator="in" in2="blur"/>
      <feComposite in="SourceGraphic"/>
    </filter>
  </defs>
  <g id="Group_1752" data-name="Group 1752" transform="translate(-9327 -4417)">
    <g class="cls-3" transform="matrix(1, 0, 0, 1, 9327, 4417)">
      <rect id="Rectangle_1167-2" data-name="Rectangle 1167" class="cls-1" width="26.642" height="25.94" rx="12.97" transform="translate(-7782.04 -3364.61)"/>
    </g>
    <path id="Path_442" data-name="Path 442" class="cls-2" d="M1342.406,77.435a3.368,3.368,0,0,0,3.367-3.368,3.368,3.368,0,1,0-3.367,3.368Zm0,1.754c-2.245,0-6.805,1.123-6.805,3.368v1.684h13.541V82.557C1349.211,80.312,1344.721,79.189,1342.406,79.189Z" transform="translate(216.019 986.589)"/>
  </g>
</svg>
