<svg xmlns="http://www.w3.org/2000/svg" viewBox="-9230.377 -3487.502 25.861 27.86">
  <defs>
    <style>
      .cls-1 {
        fill: #ea495c;
      }
    </style>
  </defs>
  <path id="Path_439" data-name="Path 439" class="cls-1" d="M89.195,419.028H72v-2.8h17.2Zm0-5.6H72v-2.8h17.2Zm0-5.6H72v-2.8h17.2ZM67.6,425.96l2.133-2.133,2.133,2.133L74,423.827l2.133,2.133,2.133-2.133L80.4,425.96l2.133-2.133,2.133,2.133,2.133-2.133,2.133,2.133,2.133-2.133,2.4,2.133V398.1l-2.133,2.133L89.195,398.1l-2.133,2.133L84.929,398.1,82.8,400.233,80.664,398.1l-2.133,2.133L76.4,398.1l-2.133,2.133L72.132,398.1,70,400.233,67.867,398.1v27.86Z" transform="translate(-9297.977 -3885.602)"/>
</svg>
