<svg xmlns="http://www.w3.org/2000/svg" viewBox="-8714.347 -2967.576 112.602 121.307">
  <defs>
    <style>
      .cls-1 {
        fill: #ea495c;
      }
    </style>
  </defs>
  <path id="Path_435" data-name="Path 435" class="cls-1" d="M161.627,489.225H86.754V477.037h74.874Zm0-24.378H86.754V452.659h74.874Zm0-24.377H86.754V428.282h74.874ZM67.6,519.407l9.287-9.287,9.287,9.287,9.287-9.287,9.287,9.287,9.287-9.287,9.287,9.287,9.287-9.287,9.287,9.287,9.287-9.287,9.287,9.287,9.287-9.287,10.448,9.287V398.1l-9.287,9.287-9.287-9.287-9.287,9.287-9.287-9.287-9.287,9.287-9.287-9.287-9.287,9.287-9.287-9.287-9.287,9.287L87.334,398.1l-9.287,9.287L68.761,398.1V519.407Z" transform="translate(-8781.946 -3365.676)"/>
</svg>
