<svg xmlns="http://www.w3.org/2000/svg" viewBox="-7928.411 6800.994 44.726 29.876">
  <defs>
    <style>
      .cls-1 {
        fill: #ea495c;
      }
    </style>
  </defs>
  <path id="Path_262" data-name="Path 262" class="cls-1" d="M1262.387,439.514a14.011,14.011,0,0,0-13.612-11.314,13.837,13.837,0,0,0-12.375,7.6,11.174,11.174,0,0,0,1.238,22.274h24.219a9.431,9.431,0,0,0,9.369-9.369A9.56,9.56,0,0,0,1262.387,439.514Zm-4.419,5.48-9.37,9.369-9.37-9.369h5.657v-7.425h7.425v7.425Z" transform="translate(-9154.912 6372.794)"/>
</svg>
