<?xml version="1.0" encoding="utf-8"?>
<!-- Generator: Adobe Illustrator 22.1.0, SVG Export Plug-In . SVG Version: 6.00 Build 0)  -->
<svg version="1.1" id="Layer_1" xmlns="http://www.w3.org/2000/svg" xmlns:xlink="http://www.w3.org/1999/xlink" x="0px" y="0px"
	 viewBox="0 0 30 30" style="enable-background:new 0 0 30 30;" xml:space="preserve">
<style type="text/css">
	.st0{fill:#EA495C;}
</style>
<path class="st0" d="M15,1.9l-7,5V4.1H2v7.1l-2,1.4v7.5l2-1.5v11.5h11v-10h4v10h11V18.6l2,1.5v-7.5L15,1.9z M4,6.1h2v2.2L4,9.7V6.1z
	 M28,16.1l-2-1.5v13.5h-7v-10h-8v10H4V14.6l-2,1.5v-2.5l13-9.3l13,9.3V16.1z"/>
</svg>
