<?xml version="1.0" encoding="utf-8"?>
<!-- Generator: Adobe Illustrator 22.1.0, SVG Export Plug-In . SVG Version: 6.00 Build 0)  -->
<svg version="1.1" id="Layer_1" xmlns="http://www.w3.org/2000/svg" xmlns:xlink="http://www.w3.org/1999/xlink" x="0px" y="0px"
	 viewBox="0 0 220 220" style="enable-background:new 0 0 220 220;" xml:space="preserve">
<style type="text/css">
	.st0{fill:#62C6F2;}
	.st1{fill:#FFC85A;}
	.st2{fill:#FFFFFF;}
	.st3{fill:#333333;}
	.st4{fill:#449FE2;}
	.st5{fill:#F2B862;}
	.st6{fill:none;}
	.st7{fill:#EA495C;}
</style>
<g>
	<g>
		<path class="st0" d="M135,83.5L39.5,109c-5.6,1.5-11.5-1.9-13-7.5L11.9,47c-1.5-5.6,1.9-11.5,7.5-13l95.5-25.6
			c5.6-1.5,11.5,1.9,13,7.5l14.6,54.5C144,76.1,140.6,81.9,135,83.5z"/>
		<polygon class="st1" points="43.5,47.3 37,49 37.8,36.4 28.9,55.7 35.4,53.9 34.6,66.5 		"/>
		<polygon class="st2" points="111,78.6 104.7,76.6 106.5,83.5 		"/>
		<polygon class="st2" points="119.2,76.4 112.8,74.4 114.7,81.3 		"/>
		<polygon class="st2" points="127.4,74.2 121,72.2 122.8,79.1 		"/>
		<polygon class="st2" points="135.6,72 129.2,70.1 131,76.9 		"/>
		<rect x="20" y="61.9" transform="matrix(0.9659 -0.2588 0.2588 0.9659 -15.1267 23.043)" class="st3" width="120" height="14.1"/>
	</g>
	<g>
		<g>
			<path class="st4" d="M154.9,100.9l-1.5-1.5h-30c-2.8,0-5,2.3-5,5v8c0,2.8,2.3,5,5,5h30l1.5-1.5h53.5v-15H154.9z M163.4,110.4
				c-1.1,0-2-0.9-2-2s0.9-2,2-2s2,0.9,2,2S164.5,110.4,163.4,110.4z"/>
			<rect x="179.4" y="102.9" class="st5" width="25" height="2"/>
			<g>
				<rect x="179.4" y="108.9" class="st5" width="11.5" height="2"/>
				<rect x="179.4" y="111.9" class="st5" width="11.5" height="2"/>
				<rect x="179.4" y="105.9" class="st5" width="11.5" height="2"/>
				<rect x="192.9" y="108.9" class="st5" width="11.5" height="2"/>
				<rect x="192.9" y="111.9" class="st5" width="11.5" height="2"/>
				<rect x="192.9" y="105.9" class="st5" width="11.5" height="2"/>
			</g>
		</g>
		<g>
			
				<rect x="61.3" y="166.5" transform="matrix(-0.7071 0.7071 -0.7071 -0.7071 232.3611 240.8317)" class="st0" width="10" height="4"/>
			<path class="st0" d="M137,112c1.9-1.9,1.9-5.1,0-7.1l-7.1-7.1c-1.9-1.9-5.1-1.9-7.1,0L101.7,119c3.9,3.9,3.9,10.2,0,14.1
				c-3.9,3.9-10.2,3.9-14.1,0l-24.7,24.7l14.1,14.1L137,112z M123.6,111.3c-1.6-1.6-1.6-4.1,0-5.7c1.6-1.6,4.1-1.6,5.7,0
				c1.6,1.6,1.6,4.1,0,5.7C127.7,112.8,125.1,112.8,123.6,111.3z"/>
		</g>
	</g>
</g>
<rect x="10" y="8.1" class="st6" width="200" height="210"/>
<g>
	<path class="st7" d="M29,191.4c0.8,0.5,1.5,1.1,1.9,2c0.5,0.8,0.7,1.8,0.7,2.9s-0.2,2-0.7,2.9c-0.5,0.9-1.1,1.6-1.9,2.1
		s-1.7,0.8-2.8,0.8h-5.8v7.4c0,0.2-0.1,0.4-0.2,0.6c-0.2,0.2-0.4,0.2-0.6,0.2c-0.2,0-0.4-0.1-0.6-0.2s-0.2-0.4-0.2-0.6v-17.9
		c0-0.2,0.1-0.4,0.2-0.6s0.4-0.2,0.6-0.2h6.6C27.3,190.7,28.2,191,29,191.4z M28.9,199.2c0.7-0.8,1-1.8,1-2.9c0-1.2-0.3-2.1-1-2.8
		s-1.5-1.1-2.6-1.1h-5.8v8h5.8C27.3,200.4,28.2,200,28.9,199.2z"/>
	<path class="st7" d="M47.1,196.3c0.2,0.2,0.2,0.4,0.2,0.6v12.6c0,0.2-0.1,0.4-0.2,0.6s-0.4,0.2-0.6,0.2c-0.2,0-0.4-0.1-0.6-0.2
		s-0.2-0.4-0.2-0.6v-1.9c-0.5,0.8-1.2,1.5-2.1,2.1s-2,0.9-3.1,0.9c-1.3,0-2.4-0.3-3.4-1c-1-0.7-1.8-1.5-2.4-2.7
		c-0.6-1.1-0.9-2.4-0.9-3.8c0-1.4,0.3-2.7,0.9-3.8c0.6-1.1,1.4-2,2.4-2.6c1-0.6,2.1-1,3.3-1c1.1,0,2.1,0.3,3.1,0.8
		c0.9,0.5,1.6,1.3,2.1,2.1v-1.7c0-0.2,0.1-0.4,0.2-0.6s0.4-0.3,0.6-0.3C46.7,196,46.9,196.1,47.1,196.3z M43.3,208.3
		c0.8-0.5,1.4-1.2,1.8-2.1c0.4-0.9,0.7-1.9,0.7-3c0-1.1-0.2-2.1-0.7-3s-1-1.6-1.8-2.1c-0.8-0.5-1.6-0.8-2.6-0.8s-1.8,0.3-2.6,0.8
		c-0.8,0.5-1.4,1.2-1.8,2.1s-0.7,1.9-0.7,3s0.2,2.1,0.6,3c0.4,0.9,1,1.6,1.8,2.1c0.8,0.5,1.7,0.8,2.6,0.8
		C41.6,209,42.5,208.8,43.3,208.3z"/>
	<path class="st7" d="M62.7,196c0.2,0.2,0.2,0.4,0.2,0.6V209c0,1.5-0.3,2.7-0.9,3.8c-0.6,1-1.4,1.8-2.4,2.4c-1,0.5-2.2,0.8-3.5,0.8
		c-0.8,0-1.5-0.1-2.2-0.3s-1.2-0.4-1.7-0.7c-0.4-0.2-0.6-0.5-0.6-0.8c0,0,0-0.1,0.1-0.3c0.1-0.2,0.1-0.3,0.3-0.4
		c0.1-0.1,0.3-0.1,0.4-0.1c0.1,0,0.2,0,0.3,0.1c1.2,0.7,2.3,1,3.4,1c1.5,0,2.8-0.5,3.7-1.5s1.4-2.3,1.4-4v-1c-0.5,0.8-1.1,1.4-2,1.9
		c-0.9,0.5-1.8,0.7-2.9,0.7c-1.6,0-2.9-0.5-3.7-1.5s-1.3-2.3-1.3-3.9v-8.6c0-0.2,0.1-0.4,0.2-0.6c0.2-0.2,0.4-0.2,0.6-0.2
		c0.2,0,0.4,0.1,0.6,0.2c0.2,0.2,0.2,0.4,0.2,0.6v8.3c0,1.3,0.3,2.4,0.9,3.1c0.6,0.7,1.5,1,2.8,1c0.8,0,1.5-0.2,2.2-0.6
		c0.7-0.4,1.3-0.9,1.7-1.5c0.4-0.6,0.6-1.3,0.6-2v-8.3c0-0.2,0.1-0.4,0.2-0.6c0.2-0.2,0.4-0.2,0.6-0.2
		C62.3,195.8,62.5,195.8,62.7,196z"/>
	<path class="st7" d="M90,209.5c0,0.2-0.1,0.4-0.3,0.6s-0.4,0.2-0.6,0.2c-0.2,0-0.4-0.1-0.5-0.2c-0.1-0.1-0.2-0.2-0.3-0.4l-2.1-5.1
		h-9.1l-2.1,5.1c-0.1,0.4-0.4,0.6-0.8,0.6c-0.3,0-0.5-0.1-0.6-0.2c-0.1-0.1-0.2-0.3-0.2-0.5v-0.1c0-0.1,0-0.2,0-0.3l7.4-18.1
		c0.1-0.4,0.4-0.6,0.8-0.6c0.2,0,0.4,0.1,0.5,0.2c0.1,0.1,0.2,0.2,0.3,0.4l7.4,18C90,209.4,90,209.5,90,209.5z M77.8,203h7.8
		l-3.9-9.6L77.8,203z"/>
	<path class="st7" d="M92,207.4c0-0.2,0.1-0.4,0.4-0.6c0.1-0.1,0.3-0.2,0.4-0.2c0.2,0,0.4,0.1,0.6,0.3c1.1,1.5,2.6,2.2,4.4,2.2
		c0.9,0,1.7-0.2,2.3-0.6c0.7-0.4,1-1,1-1.8c0-0.8-0.3-1.4-0.9-1.8s-1.5-0.7-2.6-1c-1.5-0.4-2.8-0.9-3.6-1.5
		c-0.9-0.6-1.3-1.5-1.3-2.8c0-0.8,0.2-1.5,0.6-2.1c0.4-0.6,1-1.1,1.8-1.4c0.7-0.3,1.6-0.5,2.5-0.5c0.8,0,1.6,0.2,2.4,0.5
		s1.5,0.8,2.1,1.5c0.2,0.1,0.3,0.3,0.3,0.6c0,0.2-0.1,0.4-0.3,0.6c-0.1,0.1-0.3,0.2-0.5,0.2c-0.2,0-0.4-0.1-0.5-0.2
		c-0.4-0.5-1-0.9-1.6-1.1c-0.6-0.3-1.3-0.4-2-0.4c-0.9,0-1.6,0.2-2.3,0.6c-0.6,0.4-0.9,1-0.9,1.8c0,0.7,0.4,1.3,1,1.7
		c0.6,0.4,1.6,0.7,2.8,1.1c1,0.2,1.8,0.5,2.4,0.8c0.6,0.3,1.2,0.7,1.6,1.3c0.4,0.5,0.6,1.3,0.6,2.2c0,1.2-0.5,2.2-1.5,2.9
		s-2.2,1.1-3.6,1.1c-2.3,0-4.1-0.8-5.4-2.5C92.1,207.8,92,207.6,92,207.4z"/>
	<path class="st7" d="M126.6,192l-6.2,8.6v8.9c0,0.2-0.1,0.4-0.3,0.6s-0.4,0.2-0.6,0.2c-0.2,0-0.4-0.1-0.6-0.2s-0.2-0.4-0.2-0.6
		v-8.9l-6.3-8.6c-0.1-0.2-0.2-0.4-0.2-0.6s0.1-0.4,0.3-0.6s0.4-0.3,0.6-0.3c0.3,0,0.5,0.1,0.7,0.4l5.8,7.9l5.7-7.9
		c0.2-0.3,0.4-0.4,0.7-0.4c0.2,0,0.4,0.1,0.6,0.3s0.3,0.4,0.3,0.6C126.8,191.6,126.7,191.8,126.6,192z"/>
	<path class="st7" d="M140.6,207c-0.6,1.1-1.5,2-2.5,2.7s-2.3,1-3.6,1c-1.3,0-2.5-0.3-3.6-1c-1.1-0.6-1.9-1.5-2.5-2.7
		c-0.6-1.1-0.9-2.4-0.9-3.8s0.3-2.7,0.9-3.8c0.6-1.1,1.5-2,2.5-2.7c1.1-0.7,2.3-1,3.6-1c1.3,0,2.5,0.3,3.6,1
		c1.1,0.7,1.9,1.5,2.5,2.7c0.6,1.1,0.9,2.4,0.9,3.8S141.2,205.8,140.6,207z M139.2,200.1c-0.5-0.9-1.1-1.6-1.9-2.1
		c-0.8-0.5-1.8-0.8-2.8-0.8c-1,0-1.9,0.3-2.7,0.8c-0.8,0.5-1.5,1.2-1.9,2.1s-0.7,1.9-0.7,3c0,1.1,0.2,2.1,0.7,3s1.1,1.6,1.9,2.1
		c0.8,0.5,1.7,0.8,2.7,0.8c1,0,1.9-0.3,2.8-0.8c0.8-0.5,1.5-1.2,1.9-2.1s0.7-1.9,0.7-3S139.6,201,139.2,200.1z"/>
	<path class="st7" d="M156.3,196.3c0.2,0.2,0.2,0.4,0.2,0.6v7.9c0,1.8-0.5,3.2-1.5,4.2c-1,1-2.4,1.5-4.3,1.5c-1.8,0-3.2-0.5-4.2-1.5
		s-1.5-2.4-1.5-4.2v-7.9c0-0.2,0.1-0.4,0.2-0.6c0.2-0.2,0.4-0.2,0.6-0.2c0.2,0,0.4,0.1,0.6,0.2c0.2,0.2,0.2,0.4,0.2,0.6v7.9
		c0,1.3,0.4,2.4,1.1,3.1c0.7,0.7,1.7,1,3,1c1.3,0,2.3-0.4,3-1c0.7-0.7,1.1-1.7,1.1-3.1v-7.9c0-0.2,0.1-0.4,0.2-0.6
		c0.2-0.2,0.4-0.2,0.6-0.2C155.9,196.1,156.1,196.2,156.3,196.3z"/>
	<path class="st7" d="M183.9,200.7c0.2,0.2,0.2,0.4,0.2,0.6v6.7c0,0.3-0.1,0.6-0.4,0.8c-0.8,0.6-1.8,1-2.8,1.3
		c-1,0.3-2.1,0.5-3.1,0.5c-1.9,0-3.6-0.4-5.2-1.3c-1.5-0.9-2.7-2.1-3.6-3.6c-0.9-1.5-1.3-3.2-1.3-5.2c0-1.9,0.4-3.6,1.3-5.2
		c0.9-1.5,2.1-2.7,3.6-3.6c1.5-0.9,3.2-1.3,5.2-1.3c1,0,1.9,0.1,2.9,0.4c0.9,0.2,1.8,0.6,2.5,1c0.3,0.2,0.4,0.4,0.4,0.7
		c0,0.2-0.1,0.4-0.2,0.6c-0.2,0.2-0.3,0.3-0.5,0.3c-0.2,0-0.4,0-0.5-0.1c-1.4-0.8-2.9-1.1-4.5-1.1c-1.6,0-3,0.4-4.3,1.1
		s-2.2,1.7-3,3c-0.7,1.3-1.1,2.7-1.1,4.3s0.4,3,1.1,4.3c0.7,1.3,1.7,2.3,3,3s2.7,1.1,4.3,1.1c0.8,0,1.6-0.1,2.4-0.3
		c0.8-0.2,1.5-0.5,2.2-0.9v-5.5H178c-0.2,0-0.4-0.1-0.6-0.2s-0.3-0.4-0.3-0.6c0-0.2,0.1-0.4,0.3-0.6c0.2-0.2,0.4-0.2,0.6-0.2h5.3
		C183.5,200.4,183.7,200.5,183.9,200.7z"/>
	<path class="st7" d="M200.3,207c-0.6,1.1-1.5,2-2.5,2.7s-2.3,1-3.6,1c-1.3,0-2.5-0.3-3.6-1c-1.1-0.6-1.9-1.5-2.5-2.7
		c-0.6-1.1-0.9-2.4-0.9-3.8s0.3-2.7,0.9-3.8c0.6-1.1,1.5-2,2.5-2.7c1.1-0.7,2.3-1,3.6-1c1.3,0,2.5,0.3,3.6,1
		c1.1,0.7,1.9,1.5,2.5,2.7c0.6,1.1,0.9,2.4,0.9,3.8S200.9,205.8,200.3,207z M198.9,200.1c-0.5-0.9-1.1-1.6-1.9-2.1
		c-0.8-0.5-1.8-0.8-2.8-0.8c-1,0-1.9,0.3-2.7,0.8c-0.8,0.5-1.5,1.2-1.9,2.1s-0.7,1.9-0.7,3c0,1.1,0.2,2.1,0.7,3s1.1,1.6,1.9,2.1
		c0.8,0.5,1.7,0.8,2.7,0.8c1,0,1.9-0.3,2.8-0.8c0.8-0.5,1.5-1.2,1.9-2.1s0.7-1.9,0.7-3S199.3,201,198.9,200.1z"/>
</g>
</svg>
