<svg xmlns="http://www.w3.org/2000/svg" viewBox="0 0 72.106 72.105">
  <defs>
    <style>
      .cls-1 {
        fill: #3b9e18;
        stroke: #707070;
      }

      .cls-2 {
        fill: #fff;
      }

      .cls-3 {
        fill: none;
      }

      .cls-4 {
        stroke: none;
      }
    </style>
  </defs>
  <g id="Green_Tick" data-name="Green Tick" transform="translate(-1222.173 -1157.457)">
    <g id="Group_375" data-name="Group 375" transform="translate(1222.173 1157.457)">
      <g id="Ellipse_20" data-name="Ellipse 20" class="cls-1" transform="translate(0)">
        <circle class="cls-4" cx="36.053" cy="36.053" r="36.053"/>
        <circle class="cls-3" cx="36.053" cy="36.053" r="35.553"/>
      </g>
    </g>
    <g id="ic_clear_white_24px_2_" data-name="ic_clear_white_24px (2)" transform="translate(1233.86 1169.624)">
      <path id="Path_303" data-name="Path 303" class="cls-2" d="M32.96,7.816,30.144,5,18.98,16.164,7.816,5,5,7.816,16.164,18.98,5,30.144,7.816,32.96,18.98,21.8,30.144,32.96l2.816-2.816L21.8,18.98Z" transform="translate(4.986 4.986)"/>
      <path id="Path_304" data-name="Path 304" class="cls-3" d="M0,0H47.932V47.932H0Z"/>
    </g>
  </g>
</svg>
