<?xml version="1.0" encoding="utf-8"?>
<!-- Generator: Adobe Illustrator 22.1.0, SVG Export Plug-In . SVG Version: 6.00 Build 0)  -->
<svg version="1.1" id="Layer_1" xmlns="http://www.w3.org/2000/svg" xmlns:xlink="http://www.w3.org/1999/xlink" x="0px" y="0px"
	 viewBox="0 0 30 30" style="enable-background:new 0 0 30 30;" xml:space="preserve">
<style type="text/css">
	.st0{fill:#FFFFFF;}
</style>
<g>
	<g>
		<path class="st0" d="M30,5h-2V0H6C2.7,0,0,2.7,0,6v18c0,3.3,2.7,6,6,6h19v-3h5V5z M6,2h20v3v1H5.5v4.4C4,10.3,2.7,9.3,2,8V6
			C2,3.8,3.8,2,6,2z M6,28c-2.2,0-4-1.8-4-4V9.8c1,1.1,2.4,1.7,4,1.7h17V25v3H6z M28,25h-3h-1V10.5H6.5V7H26h2V25z"/>
	</g>
	<g>
		<circle class="st0" cx="18" cy="20" r="2"/>
	</g>
</g>
</svg>
