<svg id="Group_2266" data-name="Group 2266" xmlns="http://www.w3.org/2000/svg" viewBox="-11822 -3526 69 68">
  <defs>
    <style>
      .cls-1, .cls-2 {
        fill: none;
      }

      .cls-1 {
        stroke: #ea495c;
        stroke-linecap: round;
        stroke-linejoin: round;
        stroke-miterlimit: 10;
        stroke-width: 2px;
      }
    </style>
  </defs>
  <g id="Group_2109" data-name="Group 2109" transform="translate(-11806 -3511.417)">
    <g id="Tariff" transform="translate(4.815 5.432)">
      <path id="Path_633" data-name="Path 633" class="cls-1" d="M17.154,29.269,29.269,17.154,13.115,1H1V13.115Z" transform="translate(-1 -1)"/>
      <circle id="Ellipse_143" data-name="Ellipse 143" class="cls-1" cx="2.692" cy="2.692" r="2.692" transform="translate(5.385 5.385)"/>
    </g>
    <rect id="Rectangle_1299" data-name="Rectangle 1299" class="cls-2" width="38.515" height="38.515" transform="translate(0)"/>
  </g>
  <rect id="Rectangle_1377" data-name="Rectangle 1377" class="cls-2" width="69" height="68" transform="translate(-11822 -3526)"/>
</svg>
