<svg id="Group_2254" data-name="Group 2254" xmlns="http://www.w3.org/2000/svg" viewBox="-12177 -4051 69 68">
  <defs>
    <style>
      .cls-1, .cls-2 {
        fill: none;
      }

      .cls-1 {
        stroke: #fff;
        stroke-linecap: square;
        stroke-miterlimit: 10;
        stroke-width: 2px;
      }
    </style>
  </defs>
  <g id="Overview-Dashbaord" transform="translate(-12157 -4033)">
    <rect id="Rectangle_1286" data-name="Rectangle 1286" class="cls-1" width="9.146" height="15.678" transform="translate(3 1)"/>
    <rect id="Rectangle_1287" data-name="Rectangle 1287" class="cls-1" width="9.146" height="7.839" transform="translate(3 21.904)"/>
    <rect id="Rectangle_1288" data-name="Rectangle 1288" class="cls-1" width="9.146" height="7.839" transform="translate(17.372 1)"/>
    <rect id="Rectangle_1289" data-name="Rectangle 1289" class="cls-1" width="9.146" height="15.678" transform="translate(17.372 14.065)"/>
  </g>
  <rect id="Rectangle_1365" data-name="Rectangle 1365" class="cls-2" width="69" height="68" transform="translate(-12177 -4051)"/>
</svg>
