<svg xmlns="http://www.w3.org/2000/svg" viewBox="3091 -14530 200 200">
  <defs>
    <style>
      .cls-1, .cls-2 {
        fill: none;
      }

      .cls-1 {
        stroke: #7579ff;
        stroke-width: 3px;
      }
    </style>
  </defs>
  <g id="combi" transform="translate(2623 -15022)">
    <g id="Combi-2" data-name="Combi" transform="translate(531 530)">
      <path id="Path_241" data-name="Path 241" class="cls-1" d="M8.213,114.986H12.32V123.2h8.213v-8.213H53.386V123.2H61.6v-8.213h4.107a8.237,8.237,0,0,0,8.213-8.213V8.213A8.237,8.237,0,0,0,65.706,0H8.213A8.237,8.237,0,0,0,0,8.213v98.559A8.237,8.237,0,0,0,8.213,114.986ZM8.419,9.24H65.911V95.479H8.419V9.24Zm7.392,94.042a2.718,2.718,0,0,1-2.669,2.669,2.546,2.546,0,0,1-2.464-2.669,2.718,2.718,0,0,1,2.669-2.669A2.546,2.546,0,0,1,15.811,103.282Zm10.267,0a2.669,2.669,0,1,1-2.669-2.669A2.869,2.869,0,0,1,26.077,103.282Zm34.906.821a3.285,3.285,0,1,1-3.285-3.285A3.243,3.243,0,0,1,60.984,104.1Z"/>
    </g>
    <rect id="Rectangle_1478" data-name="Rectangle 1478" class="cls-2" width="200" height="200" transform="translate(468 492)"/>
  </g>
</svg>
