<svg xmlns="http://www.w3.org/2000/svg" viewBox="17674 -14521 266 266">
  <defs>
    <style>
      .cls-1, .cls-2, .cls-3, .cls-4, .cls-5 {
        fill: none;
      }

      .cls-1, .cls-2, .cls-4 {
        stroke: #7579ff;
      }

      .cls-1, .cls-2, .cls-3, .cls-4 {
        stroke-linecap: round;
        stroke-linejoin: round;
      }

      .cls-1 {
        stroke-width: 2px;
      }

      .cls-3 {
        stroke: #000;
        stroke-width: 0.5px;
      }

      .cls-4 {
        stroke-width: 3px;
      }
    </style>
  </defs>
  <g id="Radiator_Valves_No" data-name="Radiator Valves No" transform="translate(16553 -15022)">
    <g id="Radiator_Valves_No-2" data-name="Radiator Valves No" transform="translate(1201.999 515)">
      <rect id="Rectangle_623" data-name="Rectangle 623" class="cls-1" width="64.691" height="31.196" transform="translate(19.703 155.652)"/>
      <path id="Path_261" data-name="Path 261" class="cls-2" d="M37.938,8.4H34.654c-3.612,0-5.254,1.642-5.254,5.254V96.077c0,3.612,1.642,5.254,5.254,5.254h3.284" transform="translate(66.158 17.542)"/>
      <path id="Path_262" data-name="Path 262" class="cls-2" d="M.4,101.331H3.684c3.612,0,5.254-1.642,5.254-5.254V13.654C8.938,10.042,7.3,8.4,3.684,8.4H.4" transform="translate(-0.072 17.542)"/>
      <path id="Path_263" data-name="Path 263" class="cls-2" d="M5.7,96.077c0,3.612,1.642,5.254,5.254,5.254h6.568c3.612,0,5.254-1.642,5.254-5.254V13.654c0-3.612-1.642-5.254-5.254-5.254H10.954C7.342,8.4,5.7,10.042,5.7,13.654,5.7,41.238,5.7,68.493,5.7,96.077Z" transform="translate(12.032 17.542)"/>
      <path id="Path_264" data-name="Path 264" class="cls-2" d="M13.6,96.077c0,3.612,1.642,5.254,5.254,5.254h6.568c3.612,0,5.254-1.642,5.254-5.254V13.654c0-3.612-1.642-5.254-5.254-5.254H18.854c-3.612,0-5.254,1.642-5.254,5.254Z" transform="translate(30.074 17.542)"/>
      <path id="Path_265" data-name="Path 265" class="cls-2" d="M21.5,96.077c0,3.612,1.642,5.254,5.254,5.254h6.568c3.612,0,5.254-1.642,5.254-5.254V13.654c0-3.612-1.642-5.254-5.254-5.254H26.754c-3.612,0-5.254,1.642-5.254,5.254Z" transform="translate(48.116 17.542)"/>
      <path id="Path_266" data-name="Path 266" class="cls-3" d="M104.168,36.7v5.582H.4V36.7" transform="translate(-0.072 82.173)"/>
      <path id="Path_267" data-name="Path 267" class="cls-3" d="M.4,26.442C.4,8.053,7.953.5,26.342.5H78.226c18.389,0,25.942,7.553,25.942,25.942" transform="translate(-0.072 -0.5)"/>
      <line id="Line_78" data-name="Line 78" class="cls-3" y2="92.931" transform="translate(102.783 25.942)"/>
      <line id="Line_79" data-name="Line 79" class="cls-3" y1="92.931" transform="translate(1.642 25.942)"/>
      <path id="Path_268" data-name="Path 268" class="cls-1" d="M13.435,69.368H91.261c9.195,0,12.807-3.941,12.807-12.807V38.5H.3V56.561C.628,65.427,4.241,69.368,13.435,69.368Z" transform="translate(-0.3 86.284)"/>
      <g id="Group_787" data-name="Group 787" transform="translate(0.657 0)">
        <path id="Path_269" data-name="Path 269" class="cls-4" d="M72.087,238.9V187.019H84.893v-31.2h6.568c9.195,0,12.807-3.941,12.807-12.807V119.373h-1.314V26.442h1.314C104.268,8.053,96.715.5,78.326.5H26.442C8.053.5.5,8.053.5,26.442H1.814v92.931H.5v23.643c0,9.195,3.941,12.807,12.807,12.807h6.568v31.2H32.681V238.9" transform="translate(-0.5 -0.5)"/>
      </g>
    </g>
    <rect id="Rectangle_1488" data-name="Rectangle 1488" class="cls-5" width="266" height="266" transform="translate(1121 501)"/>
  </g>
</svg>
