<svg xmlns="http://www.w3.org/2000/svg" viewBox="-8106.39 1655.103 65.345 91.698">
  <defs>
    <style>
      .cls-1 {
        fill: none;
        stroke: #6e6e6e;
        stroke-width: 3px;
        opacity: 0.21;
      }
    </style>
  </defs>
  <path id="gas" class="cls-1" d="M810.4,202.2c1.269,1.188,2.578,2.4,3.847,3.626A198.142,198.142,0,0,1,833.5,226.432c4.975,6.325,9.206,13.073,11.663,20.808a45.164,45.164,0,0,1,2.014,20.889,26.767,26.767,0,0,1-19.861,21.956c-.5.121-1.027.2-1.732.342.242-.262.342-.4.483-.524a29.323,29.323,0,0,0,10.253-16.759c2.256-9.628.181-18.532-4.855-26.851a55.887,55.887,0,0,0-11.522-13.315c1.37,11.159-1.249,21.311-6.909,31.061a21.008,21.008,0,0,0-6.929-13.778,3.822,3.822,0,0,0-.242.544,56.836,56.836,0,0,1-4.311,11.018,38.973,38.973,0,0,0-3.424,9.447c-1.108,5.66.544,10.475,4.129,14.765,1.088,1.309,2.336,2.518,3.465,3.908-1.853-.846-3.727-1.632-5.539-2.578a28.541,28.541,0,0,1-10.515-9.125,25.926,25.926,0,0,1-4.371-15.107,37.412,37.412,0,0,1,3.283-14.644c2.558-6,6.043-11.5,9.347-17.1a108.773,108.773,0,0,0,9.266-18.894c1.188-3.364,2.115-6.808,3.2-10.293" transform="translate(-8890.188 1453.998)"/>
</svg>
