<?xml version="1.0" encoding="utf-8"?>
<!-- Generator: Adobe Illustrator 22.1.0, SVG Export Plug-In . SVG Version: 6.00 Build 0)  -->
<svg version="1.1" id="Group_2743" xmlns="http://www.w3.org/2000/svg" xmlns:xlink="http://www.w3.org/1999/xlink" x="0px" y="0px"
	 viewBox="0 0 54.2 54.2" style="enable-background:new 0 0 54.2 54.2;" xml:space="preserve">
<style type="text/css">
	.st0{fill:#EA495C;}
	.st1{fill:#F2F2F2;}
	.st2{fill:#BFBFBF;}
	.st3{fill:#B27200;}
	.st4{fill:#F2AA19;}
	.st5{fill:#617A7F;}
	.st6{fill:#9DB9BF;}
	.st7{fill:#C3D4D9;}
</style>
<circle class="st0" cx="27" cy="27" r="22.5"/>
<rect x="18" y="10" class="st1" width="26.5" height="34"/>
<path class="st2" d="M36,15H21.5c-0.3,0-0.5-0.2-0.5-0.5v0c0-0.3,0.2-0.5,0.5-0.5H36c0.3,0,0.5,0.2,0.5,0.5v0
	C36.5,14.8,36.3,15,36,15z"/>
<path class="st2" d="M39,22H21.5c-0.3,0-0.5-0.2-0.5-0.5l0,0c0-0.3,0.2-0.5,0.5-0.5H39c0.3,0,0.5,0.2,0.5,0.5l0,0
	C39.5,21.8,39.3,22,39,22z"/>
<path class="st2" d="M41,18.5H21.5c-0.3,0-0.5-0.2-0.5-0.5l0,0c0-0.3,0.2-0.5,0.5-0.5H41c0.3,0,0.5,0.2,0.5,0.5l0,0
	C41.5,18.3,41.3,18.5,41,18.5z"/>
<path class="st2" d="M36,25.5H21.5c-0.3,0-0.5-0.2-0.5-0.5l0,0c0-0.3,0.2-0.5,0.5-0.5H36c0.3,0,0.5,0.2,0.5,0.5l0,0
	C36.5,25.3,36.3,25.5,36,25.5z"/>
<path class="st2" d="M41,29H21.5c-0.3,0-0.5-0.2-0.5-0.5l0,0c0-0.3,0.2-0.5,0.5-0.5H41c0.3,0,0.5,0.2,0.5,0.5l0,0
	C41.5,28.8,41.3,29,41,29z"/>
<path class="st2" d="M39,33H21.5c-0.3,0-0.5-0.2-0.5-0.5l0,0c0-0.3,0.2-0.5,0.5-0.5H39c0.3,0,0.5,0.2,0.5,0.5l0,0
	C39.5,32.8,39.3,33,39,33z"/>
<path class="st2" d="M41,40H21.5c-0.3,0-0.5-0.2-0.5-0.5l0,0c0-0.3,0.2-0.5,0.5-0.5H41c0.3,0,0.5,0.2,0.5,0.5l0,0
	C41.5,39.8,41.3,40,41,40z"/>
<path class="st2" d="M36,36.5H21.5c-0.3,0-0.5-0.2-0.5-0.5l0,0c0-0.3,0.2-0.5,0.5-0.5H36c0.3,0,0.5,0.2,0.5,0.5l0,0
	C36.5,36.3,36.3,36.5,36,36.5z"/>
<g>
	<path class="st3" d="M24,45c0,2.5-4,4.5-9,4.5s-9-2-9-4.5v-2.3h18V45z"/>
	<ellipse class="st4" cx="15" cy="42.8" rx="9" ry="4.5"/>
</g>
<g>
	<path class="st5" d="M25,41.6c0,2.5-4,4.5-9,4.5s-9-2-9-4.5v-2.3h18V41.6z"/>
	<ellipse class="st6" cx="16" cy="39.4" rx="9" ry="4.5"/>
</g>
<g>
	<path class="st3" d="M24,38.3c0,2.5-4,4.5-9,4.5s-9-2-9-4.5V36h18V38.3z"/>
	<ellipse class="st4" cx="15" cy="36" rx="9" ry="4.5"/>
</g>
<path class="st5" d="M25,34.9c0,2.5-4,4.5-9,4.5s-9-2-9-4.5v-2.3h18V34.9z"/>
<ellipse class="st6" cx="16" cy="32.6" rx="9" ry="4.5"/>
<g>
	<path class="st7" d="M12.5,28.5l12.3,5.1c-0.3,0.7-0.8,1.3-1.6,1.8L9.4,29.6C10.2,29.1,11.3,28.7,12.5,28.5z"/>
	<path class="st7" d="M19.4,36.8L7.2,31.7c0.1-0.3,0.4-0.7,0.6-1l13.4,5.5C20.6,36.5,20,36.7,19.4,36.8z"/>
</g>
</svg>
