<?xml version="1.0" encoding="utf-8"?>
<!-- Generator: Adobe Illustrator 22.1.0, SVG Export Plug-In . SVG Version: 6.00 Build 0)  -->
<svg version="1.1" id="Moving_Home" xmlns="http://www.w3.org/2000/svg" xmlns:xlink="http://www.w3.org/1999/xlink" x="0px"
	 y="0px" viewBox="0 0 50 50" style="enable-background:new 0 0 50 50;" xml:space="preserve">
<style type="text/css">
	.st0{fill:#EA495C;}
	.st1{fill:#E59145;}
	.st2{fill:#4F4A72;}
	.st3{fill:#433C66;}
	.st4{fill:#67648C;}
	.st5{fill:#FFB266;}
</style>
<circle class="st0" cx="25.5" cy="24.9" r="22.5"/>
<g>
	<rect x="10.5" y="21.9" class="st1" width="10" height="14"/>
	<polygon class="st2" points="18,22.4 8,22.4 20.5,9.9 30.5,9.9 	"/>
	<rect x="8" y="22.4" class="st3" width="10" height="2"/>
	<polygon class="st4" points="30.5,9.9 18,22.4 18,24.4 30.5,11.9 43,24.4 43,22.4 	"/>
	<polygon class="st5" points="30.5,11.9 20.5,21.9 20.5,35.9 27,35.9 27,25.9 32,25.9 32,35.9 40.5,35.9 40.5,21.9 	"/>
	<polygon class="st3" points="29.8,12.7 40.5,23.4 40.5,21.9 30.5,11.9 	"/>
	<polygon class="st3" points="43,24.4 40.5,24.4 40.5,21.9 	"/>
	<rect x="32" y="25.9" class="st1" width="2" height="10"/>
	<g>
		<rect x="13" y="13.9" class="st1" width="2.5" height="6"/>
		<polygon class="st5" points="18,17.4 15.5,19.9 15.5,13.9 18,13.9 		"/>
	</g>
</g>
</svg>
