<svg xmlns="http://www.w3.org/2000/svg" viewBox="-10603 -4013 128.71 128.71">
  <defs>
    <style>
      .cls-1, .cls-2 {
        fill: none;
      }

      .cls-1 {
        stroke: #ea495c;
        stroke-linecap: round;
        stroke-linejoin: round;
        stroke-miterlimit: 10;
        stroke-width: 4px;
      }
    </style>
  </defs>
  <g id="Group_2205" data-name="Group 2205" transform="translate(-10603 -4013)">
    <g id="Tariff" transform="translate(16.089 18.152)">
      <path id="Path_633" data-name="Path 633" class="cls-1" d="M54.982,95.469,95.469,54.982,41.487,1H1V41.487Z" transform="translate(-1 -1)"/>
      <circle id="Ellipse_143" data-name="Ellipse 143" class="cls-1" cx="8.997" cy="8.997" r="8.997" transform="translate(17.994 17.994)"/>
    </g>
    <rect id="Rectangle_1299" data-name="Rectangle 1299" class="cls-2" width="128.71" height="128.71" transform="translate(0)"/>
  </g>
</svg>
