<?xml version="1.0" encoding="utf-8"?>
<!-- Generator: Adobe Illustrator 22.1.0, SVG Export Plug-In . SVG Version: 6.00 Build 0)  -->
<svg version="1.1" id="Layer_1" xmlns="http://www.w3.org/2000/svg" xmlns:xlink="http://www.w3.org/1999/xlink" x="0px" y="0px"
	 viewBox="0 0 200 150" style="enable-background:new 0 0 200 150;" xml:space="preserve">
<style type="text/css">
	.st0{fill:#FFA6B5;}
	.st1{fill:#EA495C;}
	.st2{fill:#B5243C;}
	.st3{fill:#FFFFFF;}
</style>
<g>
	<g>
		<g>
			
				<rect x="31.2" y="41.6" transform="matrix(0.9397 -0.342 0.342 0.9397 -18.5245 31.2338)" class="st0" width="96.3" height="53.1"/>
		</g>
		<path class="st1" d="M67.1,47.9c6.1,5.1,10.9,11.7,13.8,19.7c2.9,8,3.5,16.2,2.1,24l46.4-16.9L113.5,31L67.1,47.9z"/>
		<g>
			<path class="st2" d="M40.6,75.9l-1.4-1.4c0.4-0.5,0.7-0.9,0.8-1.4c0.1-0.4,0.1-0.9,0-1.3c0-0.1-0.1-0.2-0.1-0.3
				c0-0.1-0.1-0.2-0.2-0.3l-1.6,0.6l-0.5-1.4l1.2-0.4c-0.2-0.2-0.3-0.4-0.4-0.6c-0.1-0.2-0.2-0.4-0.3-0.6c-0.3-0.9-0.2-1.7,0.3-2.5
				c0.5-0.8,1.4-1.4,2.6-1.9c1.2-0.4,2.2-0.5,3.1-0.3c0.9,0.2,1.4,0.7,1.7,1.4c0.1,0.4,0.1,0.7,0,1.1c-0.2,0.3-0.5,0.6-0.9,0.7
				c-0.4,0.1-0.8,0.1-1.1,0c-0.3-0.1-0.6-0.4-0.7-0.7c-0.1-0.2-0.1-0.4-0.1-0.6s0.1-0.4,0.3-0.6c-0.2-0.1-0.4-0.1-0.6-0.1
				c-0.2,0-0.4,0-0.6,0.1c-0.5,0.2-0.9,0.5-1.1,0.9c-0.2,0.4-0.2,0.8,0,1.3c0,0.1,0.1,0.2,0.2,0.4s0.3,0.5,0.6,0.9l2.1-0.8l0.5,1.4
				l-2,0.7c0.1,0.4,0.2,0.8,0.1,1.2c-0.1,0.4-0.3,0.8-0.6,1.2l0,0c0.2-0.3,0.5-0.5,0.7-0.7c0.2-0.2,0.5-0.3,0.7-0.4
				c0.3-0.1,0.7-0.2,1.3-0.2c0.5,0,0.9,0,1-0.1c0.2-0.1,0.4-0.2,0.4-0.5s0-0.5-0.1-0.8c0-0.1-0.1-0.2-0.1-0.2c0,0,0-0.1-0.1-0.1
				l1.4-0.5c0,0.1,0.1,0.2,0.1,0.3c0,0.1,0.1,0.2,0.2,0.4c0.4,1,0.4,1.8,0.2,2.4c-0.2,0.6-0.8,1.1-1.6,1.4c-0.2,0.1-0.5,0.1-0.7,0.2
				c-0.2,0-0.5,0.1-0.7,0.1c-0.1,0-0.3,0-0.6,0c-1,0-1.7,0.1-2,0.2c-0.3,0.1-0.6,0.3-0.8,0.5S40.9,75.4,40.6,75.9z"/>
			<path class="st2" d="M48.6,67.3l-1.5-4.9c0.9-0.2,1.6-0.5,2.2-0.6c0.5-0.2,1-0.3,1.3-0.4c0.9-0.3,1.8-0.8,2.7-1.3
				c0.2-0.1,0.3-0.2,0.4-0.2c0.1,0,0.2,0,0.2,0c0.1,0.1,0.1,0.1,0.2,0.2c0.2,0.5,0,1-0.6,1.7c-0.6,0.7-1.3,1.2-2.3,1.5
				c-0.2,0.1-0.4,0.1-0.7,0.2c-0.3,0.1-0.7,0.2-1.1,0.3l0.4,1.2c0.2-0.3,0.5-0.5,0.8-0.7s0.7-0.4,1.1-0.5c1.2-0.5,2.3-0.5,3.3-0.1
				c0.9,0.4,1.6,1.1,2,2.2c0.4,1.1,0.3,2.1-0.3,3c-0.6,1-1.6,1.7-2.9,2.2c-1.2,0.4-2.2,0.5-3.1,0.3s-1.5-0.8-1.8-1.6
				c-0.2-0.5-0.2-0.9,0-1.3c0.2-0.4,0.5-0.7,1-0.9c0.4-0.2,0.8-0.2,1.2,0c0.4,0.1,0.6,0.4,0.8,0.8c0.1,0.4,0.1,0.7,0.1,0.9
				s-0.3,0.5-0.7,0.7c0.2,0.1,0.5,0.1,0.7,0.1s0.4,0,0.7-0.1c0.5-0.2,0.9-0.6,1.1-1.1c0.2-0.5,0.2-1.1-0.1-1.8
				c-0.2-0.6-0.5-1-0.9-1.3c-0.4-0.2-0.9-0.3-1.3-0.1c-0.2,0.1-0.4,0.2-0.6,0.4c-0.2,0.2-0.3,0.4-0.4,0.6L48.6,67.3z"/>
			<path class="st2" d="M57.7,64.1c-0.5-1.5-0.6-2.8,0-4c0.5-1.2,1.5-2.1,2.8-2.6c1.4-0.5,2.6-0.4,3.8,0.2c1.2,0.6,2,1.6,2.6,3.1
				c0.5,1.5,0.6,2.8,0,4c-0.5,1.2-1.5,2.1-2.8,2.6c-1.4,0.5-2.6,0.4-3.8-0.2C59.1,66.6,58.2,65.5,57.7,64.1z M63.5,61.9
				c-0.4-1.2-0.9-2.1-1.3-2.5s-0.8-0.6-1.2-0.5c-0.4,0.2-0.7,0.6-0.7,1.2c0,0.6,0.2,1.5,0.7,2.7c0.4,1.2,0.9,2.1,1.3,2.5
				s0.8,0.6,1.3,0.5c0.4-0.2,0.7-0.5,0.7-1.1S64,63.2,63.5,61.9z"/>
		</g>
		<path class="st0" d="M95,80.1l22.8-8.3c-2-5.4-7.4-8.5-12.8-7.9c1.5-1.9,2-4.4,1.4-6.9c0,0,0,0,0,0c0.7-0.2,1.1-0.9,1.1-1.6
			c0,0,0.1,0,0.1,0c0.8-0.3,1.3-1.2,1-2.1s-1.2-1.3-2.1-1c0,0,0,0,0,0c0,0,0,0,0,0c0.7-0.4,1.1-1.2,0.8-2c-0.3-0.8-1.2-1.3-2.1-1
			c-0.1,0.1-0.3,0.1-0.4,0.2c0,0,0,0,0-0.1c0.4-0.4,0.6-1.1,0.4-1.7c-0.3-0.8-1.2-1.3-2.1-1c-0.4,0.1-0.6,0.4-0.8,0.7
			c0,0-0.1,0-0.1,0c0.2-0.4,0.2-0.8,0.1-1.2c-0.3-0.8-1.2-1.3-2.1-1c-0.5,0.2-0.9,0.6-1,1.1c0,0-0.1,0-0.1,0c0-0.2,0-0.4-0.1-0.6
			c-0.3-0.8-1.2-1.3-2.1-1c-0.7,0.3-1.1,0.9-1.1,1.6c0,0-0.1,0-0.1,0c0-0.1,0-0.1-0.1-0.2c-0.3-0.8-1.2-1.3-2.1-1
			c-0.8,0.3-1.3,1.2-1,2.1c0,0.1,0.1,0.1,0.1,0.2c0,0-0.1,0-0.1,0c-0.4-0.6-1.2-0.8-1.9-0.6c-0.8,0.3-1.3,1.2-1,2.1
			c0.1,0.2,0.2,0.3,0.3,0.5c0,0-0.1,0-0.1,0c-0.8,0.3-1.3,1.2-1,2.1c0.2,0.4,0.5,0.7,0.8,0.9c0,0,0.1,0.1,0.1,0.1
			c0,0,0.1,0.1,0.1,0.1c-0.8,1.8-1,4-0.2,6l1.1,3c1.1,3.1,4,5.1,7.2,5.3C94.6,70.3,93.2,75.4,95,80.1z"/>
		<g>
			<circle class="st3" cx="60.1" cy="84.3" r="8"/>
		</g>
	</g>
	<polygon class="st1" points="80.3,96 86.8,59.1 79,57.7 71.7,99.2 	"/>
	<g>
		<g>
			
				<rect x="99.3" y="44.1" transform="matrix(0.1736 -0.9848 0.9848 0.1736 13.173 200.1259)" class="st0" width="53.1" height="96.3"/>
		</g>
		<path class="st1" d="M125.4,68.5c2.7,7.4,3.6,15.6,2.1,24c-1.5,8.3-5.1,15.8-10.2,21.8l48.6,8.6l8.1-45.8L125.4,68.5z"/>
		<g>
			<path class="st2" d="M88.4,79.6l-0.5-1.9c0.6-0.2,1.1-0.5,1.4-0.8c0.3-0.3,0.5-0.7,0.6-1.1c0-0.1,0-0.2,0-0.3c0-0.1,0-0.2,0-0.3
				l-1.7-0.3l0.3-1.5l1.2,0.2c0-0.3-0.1-0.5-0.1-0.7c0-0.2,0-0.4,0-0.7c0.2-0.9,0.7-1.6,1.5-2c0.9-0.4,1.9-0.5,3.2-0.3
				c1.2,0.2,2.2,0.6,2.8,1.2s0.9,1.3,0.8,2.1c-0.1,0.4-0.3,0.7-0.6,0.9c-0.3,0.2-0.7,0.3-1.1,0.2c-0.4-0.1-0.7-0.2-1-0.5
				c-0.2-0.3-0.3-0.6-0.2-1c0-0.2,0.1-0.4,0.3-0.6S95.8,72,96,72c-0.1-0.2-0.3-0.3-0.5-0.4s-0.4-0.2-0.6-0.2c-0.5-0.1-1,0-1.3,0.2
				c-0.4,0.2-0.6,0.6-0.7,1.1c0,0.1,0,0.2,0,0.5c0,0.2,0,0.6,0.1,1.1l2.2,0.4l-0.3,1.5l-2.1-0.4c-0.1,0.4-0.3,0.8-0.5,1.1
				s-0.6,0.5-1.2,0.8l0,0.1c0.4-0.1,0.7-0.2,1-0.3c0.3,0,0.6,0,0.8,0c0.3,0.1,0.7,0.2,1.2,0.5c0.5,0.3,0.8,0.4,0.9,0.4
				c0.2,0,0.4,0,0.6-0.2c0.2-0.2,0.3-0.4,0.3-0.7c0-0.1,0-0.2,0-0.2c0,0,0-0.1,0-0.1l1.5,0.3c0,0.1,0,0.2,0,0.3c0,0.1,0,0.3-0.1,0.5
				c-0.2,1-0.5,1.7-1,2.2c-0.5,0.4-1.2,0.6-2.1,0.4c-0.2,0-0.5-0.1-0.7-0.2c-0.2-0.1-0.5-0.2-0.7-0.3c-0.1-0.1-0.3-0.2-0.5-0.3
				c-0.9-0.5-1.5-0.8-1.8-0.8c-0.3-0.1-0.6,0-1,0.1C89.3,79.2,88.9,79.3,88.4,79.6z"/>
			<path class="st2" d="M99.7,76.1l1.2-5c0.9,0.2,1.6,0.4,2.2,0.6c0.6,0.1,1,0.2,1.4,0.3c1,0.2,2,0.2,3,0.2c0.2,0,0.4,0,0.4,0
				c0.1,0,0.1,0.1,0.2,0.2c0,0.1,0.1,0.2,0,0.3c-0.1,0.5-0.5,0.9-1.4,1.2c-0.8,0.3-1.8,0.4-2.8,0.2c-0.2,0-0.4-0.1-0.7-0.2
				c-0.3-0.1-0.7-0.2-1.1-0.3l-0.3,1.3c0.3-0.1,0.7-0.2,1-0.2c0.4,0,0.7,0,1.2,0.1c1.3,0.2,2.3,0.7,2.9,1.5c0.6,0.8,0.9,1.8,0.7,2.9
				c-0.2,1.1-0.8,1.9-1.8,2.5c-1,0.5-2.2,0.7-3.6,0.4c-1.2-0.2-2.2-0.7-2.8-1.3c-0.6-0.6-0.9-1.4-0.7-2.3c0.1-0.5,0.3-0.9,0.7-1.1
				c0.4-0.2,0.8-0.3,1.3-0.2c0.5,0.1,0.8,0.3,1,0.6c0.2,0.3,0.3,0.7,0.3,1.1c-0.1,0.4-0.2,0.7-0.4,0.8c-0.2,0.2-0.5,0.2-0.9,0.2
				c0.2,0.2,0.4,0.4,0.5,0.5c0.2,0.1,0.4,0.2,0.6,0.2c0.6,0.1,1.1,0,1.5-0.4c0.4-0.4,0.7-0.9,0.8-1.6c0.1-0.6,0-1.1-0.2-1.6
				s-0.6-0.7-1.1-0.8c-0.2,0-0.5,0-0.7,0c-0.2,0-0.5,0.1-0.7,0.3L99.7,76.1z"/>
			<path class="st2" d="M109.2,77.9c0.3-1.6,0.9-2.7,2-3.5c1-0.8,2.3-1.1,3.7-0.8c1.4,0.3,2.5,0.9,3.2,2c0.7,1.1,0.9,2.4,0.7,4
				c-0.3,1.5-0.9,2.7-2,3.5c-1,0.8-2.3,1.1-3.7,0.8c-1.4-0.3-2.5-0.9-3.2-2S108.9,79.4,109.2,77.9z M115.3,78.9
				c0.2-1.3,0.3-2.2,0.2-2.8c-0.1-0.6-0.4-0.9-0.8-1c-0.5-0.1-0.9,0.1-1.2,0.7s-0.6,1.4-0.8,2.7s-0.3,2.2-0.2,2.8
				c0.1,0.6,0.4,0.9,0.9,1s0.8-0.1,1.2-0.7S115,80.2,115.3,78.9z"/>
		</g>
		<path class="st0" d="M133.4,110.4l23.9,4.2c1-5.7-2.1-11.1-7.2-13.2c2.2-0.9,4-2.8,4.7-5.3c0,0,0,0,0,0c0.7,0.1,1.4-0.2,1.7-0.8
			c0,0,0.1,0,0.1,0c0.9,0.2,1.7-0.4,1.9-1.3c0.2-0.9-0.4-1.7-1.3-1.9c0,0,0,0,0,0c0,0,0,0,0,0c0.8,0.1,1.5-0.5,1.7-1.3
			c0.2-0.9-0.4-1.7-1.3-1.9c-0.2,0-0.3,0-0.5,0c0,0,0,0,0-0.1c0.6-0.1,1.1-0.6,1.2-1.3c0.2-0.9-0.4-1.7-1.3-1.9
			c-0.4-0.1-0.7,0-1,0.2c0,0,0-0.1-0.1-0.1c0.3-0.2,0.6-0.6,0.7-1c0.2-0.9-0.4-1.7-1.3-1.9c-0.5-0.1-1.1,0.1-1.4,0.5
			c0,0-0.1-0.1-0.1-0.1c0.1-0.2,0.2-0.4,0.2-0.6c0.2-0.9-0.4-1.7-1.3-1.9c-0.7-0.1-1.4,0.3-1.7,0.9c0,0-0.1,0-0.1,0
			c0-0.1,0-0.1,0.1-0.2c0.2-0.9-0.4-1.7-1.3-1.9c-0.9-0.2-1.7,0.4-1.9,1.3c0,0.1,0,0.1,0,0.2c0,0-0.1,0-0.1,0
			c-0.1-0.7-0.6-1.3-1.3-1.4c-0.9-0.2-1.7,0.4-1.9,1.3c0,0.2,0,0.4,0,0.6c0,0-0.1,0-0.1,0c-0.9-0.2-1.7,0.4-1.9,1.3
			c-0.1,0.4,0,0.9,0.3,1.2c0,0,0,0.1,0,0.1c0,0,0.1,0.1,0.1,0.1c-1.6,1.2-2.8,3-3.2,5.1l-0.6,3.2c-0.6,3.3,0.9,6.5,3.6,8.2
			C138,101.8,134.3,105.5,133.4,110.4z"/>
		<g>
			<circle class="st3" cx="101.1" cy="96.6" r="8"/>
		</g>
	</g>
</g>
</svg>
