<svg xmlns="http://www.w3.org/2000/svg" viewBox="10306 -6719 148 148">
  <defs>
    <style>
      .cls-1 {
        fill: none;
      }

      .cls-2 {
        fill: #62c6f2;
      }
    </style>
  </defs>
  <g id="ic_people_black_24px" transform="translate(10306 -6719)">
    <path id="Path_225" data-name="Path 225" class="cls-1" d="M0,0H148V148H0Z"/>
    <path id="Path_226" data-name="Path 226" class="cls-2" d="M93.5,42A18.5,18.5,0,1,0,75,23.5,18.423,18.423,0,0,0,93.5,42ZM44.167,42a18.5,18.5,0,1,0-18.5-18.5A18.423,18.423,0,0,0,44.167,42Zm0,12.333C29.8,54.333,1,61.548,1,75.917V91.333H87.333V75.917C87.333,61.548,58.535,54.333,44.167,54.333Zm49.333,0c-1.788,0-3.823.123-5.982.308,7.153,5.18,12.148,12.148,12.148,21.275V91.333h37V75.917C136.667,61.548,107.868,54.333,93.5,54.333Z" transform="translate(5.167 25.833)"/>
  </g>
</svg>
