SALES_CHANNEL,URN,DATE_OF_SALE,SURNAME,FIRSTNAME,TITLE,EMAIL_ADDRESS,SUPPLY_ADDRESS_SUB_BUILDING_NAME,SUPPLY_ADDRESS_BUILDING_NAME,SUPPLY_ADDRESS_BUILDING_NUMBER,SUPPLY_ADDRESS_DEPENDENT_THOROUGHFARE_NAME,SUPPLY_ADDRESS_THOROUGHFARE_NAME,SUPPLY_ADDRESS_DOUBLE_DEPENDENT_LOCALITY,SUPPLY_ADDRESS_DEPENDENT_LOCALITY,SUPPLY_ADDRESS_POST_TOWN,SUPPLY_ADDRESS_COUNTY,SUPPLY_ADDRESS_POSTCODE,PRIMARY_TELEPHONE_NUMBER,SECONDARY_TELEPHONE_NUMBER,CORRESPONDENCE_NAME_SURNAME,CORRESPONDENCE_NAME_FIRSTNAME,CORRESPONDENCE_NAME_TITLE,CORRESPONDENCE_ADDRESS_SUB_BUILDING_NAME,CORRESPONDENCE_ADDRESS_BUILDING_NAME,CORRESPONDENCE_ADDRESS_BUILDING_NUMBER,CORRESPONDENCE_ADDRESS_DEPENDENT_THOROUGHFARE_NAME,CORRESPONDENCE_ADDRESS_THOROUGHFARE_NAME,CORRESPONDENCE_ADDRESS_DOUBLE_DEPENDENT_LOCALITY,CORRESPONDENCE_ADDRESS_DEPENDENT_LOCALITY,CORRESPONDENCE_ADDRESS_POST_TOWN,CORRESPONDENCE_ADDRESS_COUNTY,CORRESPONDENCE_ADDRESS_POSTCODE,DATE_OF_BIRTH,CHOSEN_PAYMENT_METHOD,BILL_DELIVERY_METHOD,BANK_NAME,BANK_ACCOUNT_NAME,BANK_SORT_CODE,BANK_ACCOUNT_NUMBER,BANK_ADDRESS_LINE_1,BANK_ADDRESS_LINE_2,BANK_ADDRESS_LINE_3,BANK_ADDRESS_TOWN,BANK_ADDRESS_COUNTY,BANK_ADDRESS_POSTCODE,DIRECT_DEBIT_PAYMENT_DAY,DIRECT_DEBIT_PAYMENT_AMOUNT,ELECTRICITY_SELECTED,ECONOMY_7,ECONOMY_7_USAGE_(%),ELECTRICITY_PRODUCT_SELECTED,CURRENT_ELEC_SUPPLIER_NAME,CURRENT_ELEC_SUPPLIER_TARIFF,MPAN_(ELECTRICITY),ELEC_METER_TYPE,ELEC_SMART_METER,ELEC_SMART_METER_TYPE,ANNUAL_CONSUMPTION_ELEC,ANNUAL_SAVING_ELEC,ANNUAL_NEW_COST_ELEC,GAS_SELECTED,GAS_PRODUCT_SELECTED,CURRENT_GAS_SUPPLIER_NAME,CURRENT_GAS_SUPPLIER_TARIFF,MPRN_(GAS),GAS_METER_TYPE,GAS_SMART_METER,GAS_SMART_METER_TYPE,ANNUAL_CONSUMPTION_GAS,ANNUAL_SAVING_GAS,ANNUAL_NEW_COST_GAS,MARKETING_OPT_IN
BKR,UN000001,20180430,last,first,mr,first@gmail.com,,,0,,na,,,0,0,wa158rs,123456789,0987654321,,,,,,,,,,,,,,20100608,FDD,P,,eversmart,976908708,11111111,,,,,,,,,Y,N,,ELE-VAR-1,,,1610009346816,,,,,,,N,,,,,,,,,,,Y
BKR,UN000242,20180521,Cook,Joseph,Mr,jo1@iivo.io,,,0,,na,,,0,0,pr6+7hz,07860940853,,,,,,,,,,,,,,,19860214,FDD,P,,"Joseph Cook",11-91-00,02446550,,,,,,,,,Y,N,,"Big Dans Bonanza",,,1610021280998,,,,,,,Y,BDBG,,,1565725106,STD,,,,,,Y
