<svg id="Group_2745" data-name="Group 2745" xmlns="http://www.w3.org/2000/svg" viewBox="0 0 60.571 54.121">
  <defs>
    <style>
      .cls-1, .cls-2 {
        fill: none;
      }

      .cls-1 {
        stroke: #000;
        stroke-linecap: round;
        stroke-linejoin: round;
        stroke-miterlimit: 10;
        stroke-width: 2px;
      }
    </style>
  </defs>
  <g id="usage" transform="translate(5.047 9.641)">
    <line id="Line_268" data-name="Line 268" class="cls-1" x2="48.504" transform="translate(0 35.459)"/>
    <rect id="Rectangle_1295" data-name="Rectangle 1295" class="cls-1" width="8.819" height="17.73" transform="translate(2.205 9.85)"/>
    <rect id="Rectangle_1296" data-name="Rectangle 1296" class="cls-1" width="8.819" height="27.579" transform="translate(19.843)"/>
    <rect id="Rectangle_1297" data-name="Rectangle 1297" class="cls-1" width="8.819" height="9.85" transform="translate(37.48 17.73)"/>
  </g>
  <rect id="Rectangle_1298" data-name="Rectangle 1298" class="cls-2" width="60.571" height="54.121" transform="translate(0 0)"/>
</svg>
