<svg xmlns="http://www.w3.org/2000/svg" xmlns:xlink="http://www.w3.org/1999/xlink" viewBox="10335 -1614 36.023 36.023">
  <defs>
    <style>
      .cls-1 {
        fill: url(#linear-gradient);
      }

      .cls-2 {
        fill: url(#linear-gradient-2);
      }

      .cls-3 {
        fill: url(#linear-gradient-3);
      }
    </style>
    <linearGradient id="linear-gradient" x1="0.5" y1="0.008" x2="0.5" y2="0.998" gradientUnits="objectBoundingBox">
      <stop offset="0" stop-color="#e09b3d"/>
      <stop offset="0.3" stop-color="#c74c4d"/>
      <stop offset="0.6" stop-color="#c21975"/>
      <stop offset="1" stop-color="#7024c4"/>
    </linearGradient>
    <linearGradient id="linear-gradient-2" y1="-0.451" y2="1.462" xlink:href="#linear-gradient"/>
    <linearGradient id="linear-gradient-3" y1="-1.396" y2="6.586" xlink:href="#linear-gradient"/>
  </defs>
  <g id="instagram" transform="translate(10335 -1614)">
    <path id="Path_213" data-name="Path 213" class="cls-1" d="M25.292,0H10.732A10.744,10.744,0,0,0,0,10.732v14.56A10.744,10.744,0,0,0,10.732,36.023h14.56A10.744,10.744,0,0,0,36.023,25.292V10.732A10.744,10.744,0,0,0,25.292,0ZM32.4,25.292A7.108,7.108,0,0,1,25.292,32.4H10.732a7.108,7.108,0,0,1-7.108-7.108V10.732a7.108,7.108,0,0,1,7.108-7.108h14.56A7.108,7.108,0,0,1,32.4,10.732v14.56Z"/>
    <path id="Path_214" data-name="Path 214" class="cls-2" d="M142.317,133a9.317,9.317,0,1,0,9.317,9.317A9.328,9.328,0,0,0,142.317,133Zm0,15.01a5.693,5.693,0,1,1,5.693-5.693A5.693,5.693,0,0,1,142.317,148.01Z" transform="translate(-124.305 -124.305)"/>
    <circle id="Ellipse_58" data-name="Ellipse 58" class="cls-3" cx="2.233" cy="2.233" r="2.233" transform="translate(25.114 6.532)"/>
  </g>
</svg>
