<svg id="Asset_5" data-name="Asset 5" xmlns="http://www.w3.org/2000/svg" viewBox="0 0 1920 529">
  <defs>
    <style>
      .cls-1 {
        fill: #f5f9fc;
      }

      .cls-2 {
        fill: none;
      }

      .cls-3 {
        fill: #ea495c;
      }
    </style>
  </defs>
  <rect id="Rectangle_9" data-name="Rectangle 9" class="cls-1" width="1920" height="529"/>
  <g id="Layer_1" data-name="Layer 1">
    <rect id="Rectangle_3" data-name="Rectangle 3" class="cls-2" width="1920" height="0.25" transform="translate(0 528.32)"/>
    <path id="Path_2" data-name="Path 2" class="cls-3" d="M1920,0c-104.39,80.75-188.83,206.36-360.29,258.68-252.42,77-311.81-121.26-626.45-75.56C613.2,229.59,556.67,451.9,296.6,438.73,177,432.66,75.46,379.86,0,323.9V528.32H1920Z"/>
  </g>
</svg>
