<svg xmlns="http://www.w3.org/2000/svg" viewBox="0 0 28.438 27.591">
  <defs>
    <style>
      .cls-1 {
        fill: none;
        stroke: #111;
        stroke-linecap: round;
        stroke-linejoin: round;
        stroke-miterlimit: 10;
        stroke-width: 3px;
      }
    </style>
  </defs>
  <g id="b-meeting" transform="translate(0.5 0.5)">
    <path id="Path_751" data-name="Path 751" class="cls-1" d="M28.415,1H14V12.871l4.24-3.392H28.415Z" transform="translate(-1.977 0)"/>
    <circle id="Ellipse_159" data-name="Ellipse 159" class="cls-1" cx="2.544" cy="2.544" r="2.544" transform="translate(18.807 12.871)"/>
    <circle id="Ellipse_160" data-name="Ellipse 160" class="cls-1" cx="2.544" cy="2.544" r="2.544" transform="translate(3.544 12.871)"/>
    <path id="Path_752" data-name="Path 752" class="cls-1" d="M11.175,29.088V26.558a1.7,1.7,0,0,0-.834-1.463A8.308,8.308,0,0,0,6.088,24a8.239,8.239,0,0,0-4.262,1.092A1.694,1.694,0,0,0,1,26.55v2.538Z" transform="translate(0 -3.497)"/>
    <path id="Path_753" data-name="Path 753" class="cls-1" d="M29.175,29.088V26.558a1.7,1.7,0,0,0-.834-1.463A8.308,8.308,0,0,0,24.088,24a8.239,8.239,0,0,0-4.262,1.092A1.694,1.694,0,0,0,19,26.55v2.538Z" transform="translate(-2.737 -3.497)"/>
  </g>
</svg>
