<svg xmlns="http://www.w3.org/2000/svg" xmlns:xlink="http://www.w3.org/1999/xlink" viewBox="6591 2948 1650 241.771">
  <defs>
    <style>
      .cls-1 {
        fill: none;
      }

      .cls-2 {
        clip-path: url(#clip-path);
      }

      .cls-3 {
        fill: #62c6f2;
      }
    </style>
    <clipPath id="clip-path">
      <rect id="Rectangle_998" data-name="Rectangle 998" class="cls-1" width="1650" height="241.771" transform="translate(0 2828)"/>
    </clipPath>
  </defs>
  <g id="bottom" class="cls-2" transform="translate(6591 120)">
    <ellipse id="Ellipse_73" data-name="Ellipse 73" class="cls-3" cx="3836.25" cy="606.719" rx="3836.25" ry="606.719" transform="translate(-2721.778 2036.924) rotate(-5)"/>
  </g>
</svg>
