<svg xmlns="http://www.w3.org/2000/svg" viewBox="-7923 6426 46 46">
  <defs>
    <style>
      .cls-1, .cls-2 {
        fill: none;
      }

      .cls-1 {
        stroke: #ea495c;
        stroke-linecap: round;
        stroke-linejoin: round;
        stroke-miterlimit: 10;
        stroke-width: 3px;
      }
    </style>
  </defs>
  <g id="Group_2275" data-name="Group 2275" transform="translate(-9327 4896)">
    <g id="cloud-download-93" transform="translate(1408 1535)">
      <line id="Line_269" data-name="Line 269" class="cls-1" y2="20.972" transform="translate(18.746 13.906)"/>
      <path id="Path_640" data-name="Path 640" class="cls-1" d="M18.68,19l-4.84,4.84L9,19" transform="translate(4.906 11.039)"/>
      <path id="Path_641" data-name="Path 641" class="cls-1" d="M26.812,25.2h3.227A6.451,6.451,0,1,0,30,12.3a12.084,12.084,0,0,0-24.129.215A6.441,6.441,0,0,0,7.453,25.2H10.68"/>
    </g>
    <rect id="Rectangle_1386" data-name="Rectangle 1386" class="cls-2" width="46" height="46" transform="translate(1404 1530)"/>
  </g>
</svg>
