<svg xmlns="http://www.w3.org/2000/svg" xmlns:xlink="http://www.w3.org/1999/xlink" viewBox="0 0 139.055 113.352">
  <defs>
    <style>
      .cls-1 {
        fill: #ea495c;
      }

      .cls-2 {
        filter: url(#Path_2821);
      }
    </style>
    <filter id="Path_2821" x="0" y="55.947" width="139.055" height="57.404" filterUnits="userSpaceOnUse">
      <feOffset dy="3" input="SourceAlpha"/>
      <feGaussianBlur stdDeviation="3" result="blur"/>
      <feFlood flood-opacity="0.161"/>
      <feComposite operator="in" in2="blur"/>
      <feComposite in="SourceGraphic"/>
    </filter>
  </defs>
  <g id="black-back-closed-envelope-shape" transform="translate(5.031 -59.013)">
    <g id="Group_4561" data-name="Group 4561" transform="translate(0 59.013)">
      <g class="cls-2" transform="matrix(1, 0, 0, 1, -5.03, 0)">
        <path id="Path_2821-2" data-name="Path 2821" class="cls-1" d="M130.452,362.93A11.025,11.025,0,0,0,138,360.082l-36.546-36.547c-.877.628-1.727,1.238-2.53,1.819q-4.1,3.022-6.659,4.714a41.027,41.027,0,0,1-6.8,3.456,20.732,20.732,0,0,1-7.919,1.763H77.4a20.726,20.726,0,0,1-7.919-1.763,40.9,40.9,0,0,1-6.8-3.456q-2.556-1.69-6.659-4.714c-.763-.559-1.608-1.172-2.522-1.829L16.946,360.082a11.028,11.028,0,0,0,7.549,2.848Z" transform="translate(-7.95 -261.58)"/>
      </g>
      <path id="Path_2822" data-name="Path 2822" class="cls-1" d="M7.271,204.818A38.164,38.164,0,0,1,0,198.555v55.6l32.211-32.211Q22.545,215.2,7.271,204.818Z" transform="translate(0 -165.875)"/>
      <path id="Path_2823" data-name="Path 2823" class="cls-1" d="M438.309,204.818q-14.707,9.954-25,17.142l32.2,32.2v-55.6A39.729,39.729,0,0,1,438.309,204.818Z" transform="translate(-316.515 -165.875)"/>
      <path id="Path_2824" data-name="Path 2824" class="cls-1" d="M117.479,59.013H11.522q-5.545,0-8.529,3.742A14.523,14.523,0,0,0,.006,72.113q0,4.534,3.959,9.826a35.711,35.711,0,0,0,8.422,8.313q2.447,1.729,14.757,10.258c4.43,3.07,8.283,5.746,11.594,8.055,2.822,1.966,5.256,3.669,7.265,5.082.231.162.593.421,1.075.766.519.373,1.175.845,1.985,1.43q2.339,1.692,3.887,2.736t3.744,2.339a21.839,21.839,0,0,0,4.139,1.944,11.454,11.454,0,0,0,3.6.648h.143a11.458,11.458,0,0,0,3.6-.648,21.79,21.79,0,0,0,4.139-1.944q2.195-1.3,3.744-2.339t3.887-2.736c.808-.585,1.465-1.058,1.983-1.429.482-.346.844-.6,1.076-.767,1.565-1.089,4-2.785,7.284-5.062q8.952-6.22,26.4-18.333a34.237,34.237,0,0,0,8.781-8.853A19.044,19.044,0,0,0,129,70.531a11.612,11.612,0,0,0-11.518-11.518Z" transform="translate(-0.005 -59.013)"/>
    </g>
  </g>
</svg>
