<?xml version="1.0" encoding="utf-8"?>
<!-- Generator: Adobe Illustrator 19.2.0, SVG Export Plug-In . SVG Version: 6.00 Build 0)  -->
<svg version="1.1" xmlns="http://www.w3.org/2000/svg" xmlns:xlink="http://www.w3.org/1999/xlink" x="0px" y="0px"
	 viewBox="0 0 31 31" style="enable-background:new 0 0 31 31;" xml:space="preserve">
<style type="text/css">
	.st0{fill:#17D5D1;}
	.st1{fill:#FFFFFF;}
</style>
<g id="Layer_3">
	<path class="st0" d="M27.8,26.4H3.2c-1.6,0-3-1.4-3-3V7.6c0-1.6,1.4-3,3-3h24.6c1.7,0,3,1.4,3,3v15.8
		C30.8,25.1,29.4,26.4,27.8,26.4z"/>
</g>
<g id="Capa_1">
	<g>
		<path class="st1" d="M28.5,26.5h-26C1.1,26.5,0,25.4,0,24V7c0-1.4,1.1-2.5,2.5-2.5h26C29.9,4.5,31,5.6,31,7v17
			C31,25.4,29.9,26.5,28.5,26.5z M2.5,5.5C1.7,5.5,1,6.2,1,7v17c0,0.8,0.7,1.5,1.5,1.5h26c0.8,0,1.5-0.7,1.5-1.5V7
			c0-0.8-0.7-1.5-1.5-1.5H2.5z"/>
		<path class="st1" d="M15.5,18c-0.7,0-1.3-0.2-1.8-0.7L0.9,6.2C0.7,6,0.7,5.7,0.8,5.5c0.2-0.2,0.5-0.2,0.7,0l12.8,11.1
			c0.6,0.6,1.7,0.6,2.4,0L29.5,5.5c0.2-0.2,0.5-0.2,0.7,0c0.2,0.2,0.2,0.5,0,0.7L17.3,17.4C16.8,17.8,16.2,18,15.5,18z"/>
	</g>
</g>
</svg>
