<svg xmlns="http://www.w3.org/2000/svg" viewBox="0 0 7.388 7.388">
  <defs>
    <style>
      .cls-1, .cls-2 {
        fill: none;
        stroke: #636363;
        stroke-miterlimit: 10;
        stroke-width: 0.5px;
      }

      .cls-2 {
        stroke-linecap: square;
      }
    </style>
  </defs>
  <g id="pencil" transform="translate(0.305 0.306)">
    <line id="Line_319" data-name="Line 319" class="cls-1" x2="1.68" y2="1.68" transform="translate(4.2 0.898)"/>
    <line id="Line_320" data-name="Line 320" class="cls-1" x2="1.68" y2="1.68" transform="translate(0.336 4.762)"/>
    <path id="Path_727" data-name="Path 727" class="cls-2" d="M4.016,8.27,2,8.606,2.336,6.59,6.9,2.025a.672.672,0,0,1,.95,0l.73.73a.672.672,0,0,1,0,.95Z" transform="translate(-2 -1.828)"/>
  </g>
</svg>
