<svg xmlns="http://www.w3.org/2000/svg" viewBox="19370 -11875 266 266">
  <defs>
    <style>
      .cls-1, .cls-2 {
        fill: none;
      }

      .cls-1 {
        stroke: #7579ff;
        stroke-linecap: round;
        stroke-linejoin: round;
        stroke-miterlimit: 10;
        stroke-width: 4px;
      }
    </style>
  </defs>
  <g id="Average" transform="translate(18203 -12388)">
    <g id="sink-wash" transform="translate(1218.999 591)">
      <path id="Path_580" data-name="Path 580" class="cls-1" d="M16,39.375C16,30.113,30.625,15,30.625,15S45.25,30.113,45.25,39.375,37.938,54,30.625,54,16,48.637,16,39.375Z" transform="translate(55.416 53.478)"/>
      <path id="Path_583" data-name="Path 583" class="cls-1" d="M16,39.375C16,30.113,30.625,15,30.625,15S45.25,30.113,45.25,39.375,37.938,54,30.625,54,16,48.637,16,39.375Z" transform="translate(92.69 53.478)"/>
      <path id="Path_581" data-name="Path 581" class="cls-1" d="M54.625,1H1V20.5"/>
      <path id="Path_582" data-name="Path 582" class="cls-1" d="M1,5H108.25V34.25h-78v58.5H1Z" transform="translate(0 15.5)"/>
    </g>
    <rect id="Rectangle_1505" data-name="Rectangle 1505" class="cls-2" width="266" height="266" transform="translate(1167 513)"/>
  </g>
</svg>
