<svg xmlns="http://www.w3.org/2000/svg" viewBox="9062 -11943 387 387">
  <defs>
    <style>
      .cls-1, .cls-2, .cls-3, .cls-5, .cls-6 {
        fill: none;
      }

      .cls-1, .cls-2, .cls-3, .cls-4, .cls-5 {
        stroke: #7579ff;
        stroke-linecap: round;
      }

      .cls-1, .cls-2, .cls-3, .cls-4 {
        stroke-linejoin: round;
      }

      .cls-1, .cls-5 {
        stroke-width: 3px;
      }

      .cls-2 {
        stroke-width: 2px;
      }

      .cls-4 {
        fill: #fff;
      }
    </style>
  </defs>
  <g id="Covered_Flue_Yes" data-name="Covered Flue Yes" transform="translate(8629 -12411)">
    <g id="Covered_Flue_Yes-2" data-name="Covered Flue Yes" transform="translate(465 557)">
      <path id="Path_315" data-name="Path 315" class="cls-1" d="M103.8,38.832H275.009V28.522L103.8,14Z" transform="translate(47.208 5.604)"/>
      <rect id="Rectangle_915" data-name="Rectangle 915" class="cls-2" width="3.195" height="18.007" transform="translate(150.298 71.882)"/>
      <path id="Path_316" data-name="Path 316" class="cls-3" d="M109.395,63.308,106.2,65.2V51.4l3.195,1.888Z" transform="translate(47.293 22.515)"/>
      <path id="Path_317" data-name="Path 317" class="cls-2" d="M108.4,52.8h24.106l-5.373,9.729H108.4" transform="translate(48.288 23.148)"/>
      <rect id="Rectangle_916" data-name="Rectangle 916" class="cls-1" width="150.443" height="208.965" transform="translate(0 0)"/>
      <rect id="Rectangle_917" data-name="Rectangle 917" class="cls-2" width="60.555" height="134.47" transform="translate(11.908 65.492)"/>
      <rect id="Rectangle_918" data-name="Rectangle 918" class="cls-3" width="45.598" height="55.908" transform="translate(19.168 73.043)"/>
      <rect id="Rectangle_919" data-name="Rectangle 919" class="cls-3" width="45.598" height="55.908" transform="translate(19.168 136.067)"/>
      <rect id="Rectangle_920" data-name="Rectangle 920" class="cls-4" width="65.202" height="3.776" transform="translate(10.165 199.962)"/>
      <path id="Path_661" data-name="Path 661" class="cls-5" d="M0,0H321.217" transform="translate(0 208.965)"/>
    </g>
    <rect id="Rectangle_1494" data-name="Rectangle 1494" class="cls-6" width="387" height="387" transform="translate(433 468)"/>
  </g>
</svg>
