<svg xmlns="http://www.w3.org/2000/svg" viewBox="17087 -14521 266 266">
  <defs>
    <style>
      .cls-1 {
        fill: #e2e2e2;
        stroke: #c6c6c6;
      }

      .cls-1, .cls-2, .cls-3, .cls-4, .cls-5, .cls-6 {
        stroke-linecap: round;
        stroke-linejoin: round;
      }

      .cls-1, .cls-2, .cls-5 {
        stroke-width: 0.5px;
      }

      .cls-2, .cls-3, .cls-4, .cls-5, .cls-6, .cls-7 {
        fill: none;
      }

      .cls-2 {
        stroke: #000;
      }

      .cls-3, .cls-4, .cls-5, .cls-6 {
        stroke: #7579ff;
      }

      .cls-4 {
        stroke-width: 2px;
      }

      .cls-6 {
        stroke-width: 3px;
      }

      .cls-8 {
        fill: #7579ff;
        font-size: 14px;
        font-family: MyriadPro-Regular, Myriad Pro;
      }
    </style>
  </defs>
  <g id="Radiator_Valves_Yes" data-name="Radiator Valves Yes" transform="translate(16553 -15022)">
    <g id="Radiator_Valves_Yes-2" data-name="Radiator Valves Yes" transform="translate(620 515)">
      <line id="Line_69" data-name="Line 69" class="cls-1" y1="73.806" transform="translate(7.824 20.603)"/>
      <line id="Line_70" data-name="Line 70" class="cls-1" y2="73.806" transform="translate(88.149 20.603)"/>
      <path id="Path_251" data-name="Path 251" class="cls-2" d="M3.2,21.1C3.2,6.5,9.2.5,23.8.5H65.009c14.6,0,20.6,6,20.6,20.6" transform="translate(3.581 -0.5)"/>
      <path id="Path_252" data-name="Path 252" class="cls-2" d="M85.612,36.7v4.434H3.2V36.7" transform="translate(3.581 57.709)"/>
      <path id="Path_253" data-name="Path 253" class="cls-3" d="M94.887,42.573V83.779c0,2.869-1.3,4.173-4.173,4.173H5.173C2.3,87.951,1,86.647,1,83.779,1,69.956,1,56.134,1,42.573,1,39.7,2.3,38.4,5.173,38.4H90.714C93.844,38.4,94.887,39.7,94.887,42.573Z" transform="translate(0.043 60.442)"/>
      <path id="Path_254" data-name="Path 254" class="cls-4" d="M13.632,81.915H75.441c7.3,0,10.171-3.13,10.171-10.171V57.4H3.2V71.744C3.2,79.046,6.33,81.915,13.632,81.915Z" transform="translate(3.581 90.994)"/>
      <path id="Path_255" data-name="Path 255" class="cls-3" d="M24.3,78.033c0,2.869,1.3,4.173,4.173,4.173h5.216c2.869,0,4.173-1.3,4.173-4.173V12.573c0-2.869-1.3-4.173-4.173-4.173H28.473C25.6,8.4,24.3,9.7,24.3,12.573Z" transform="translate(37.509 12.203)"/>
      <path id="Path_256" data-name="Path 256" class="cls-3" d="M16.4,78.033c0,2.869,1.3,4.173,4.173,4.173h5.216c2.869,0,4.173-1.3,4.173-4.173V12.573c0-2.869-1.3-4.173-4.173-4.173H20.573C17.7,8.4,16.4,9.7,16.4,12.573Z" transform="translate(24.806 12.203)"/>
      <path id="Path_257" data-name="Path 257" class="cls-3" d="M8.5,78.033c0,2.869,1.3,4.173,4.173,4.173h5.216c2.869,0,4.173-1.3,4.173-4.173V12.573c0-2.869-1.3-4.173-4.173-4.173H12.673C9.8,8.4,8.5,9.7,8.5,12.573Z" transform="translate(12.103 12.203)"/>
      <path id="Path_258" data-name="Path 258" class="cls-3" d="M3.2,82.206H5.808c2.869,0,4.173-1.3,4.173-4.173V12.573C9.981,9.7,8.677,8.4,5.808,8.4H3.2" transform="translate(3.581 12.203)"/>
      <path id="Path_259" data-name="Path 259" class="cls-3" d="M38.981,8.4H36.373C33.5,8.4,32.2,9.7,32.2,12.573v65.46c0,2.869,1.3,4.173,4.173,4.173h2.608" transform="translate(50.212 12.203)"/>
      <rect id="Rectangle_619" data-name="Rectangle 619" class="cls-4" width="51.377" height="24.776" transform="translate(22.168 172.909)"/>
      <line id="Line_71" data-name="Line 71" class="cls-5" x2="93.887" transform="translate(1.043 131.442)"/>
      <line id="Line_72" data-name="Line 72" class="cls-5" y1="7.302" transform="translate(8.867 124.139)"/>
      <line id="Line_73" data-name="Line 73" class="cls-5" y1="7.302" transform="translate(24.254 124.139)"/>
      <line id="Line_74" data-name="Line 74" class="cls-5" y1="7.302" transform="translate(39.902 124.139)"/>
      <line id="Line_75" data-name="Line 75" class="cls-5" y1="7.302" transform="translate(55.289 124.139)"/>
      <line id="Line_76" data-name="Line 76" class="cls-5" y1="7.302" transform="translate(70.676 124.139)"/>
      <line id="Line_77" data-name="Line 77" class="cls-5" y1="7.302" transform="translate(86.063 124.139)"/>
      <g id="Group_785" data-name="Group 785" transform="translate(0 0)">
        <path id="Path_260" data-name="Path 260" class="cls-6" d="M31.9,239.39V198.184H21.725V173.409H16.509c-7.3,0-10.171-3.13-10.171-10.171V148.894H4.773C1.9,148.894.6,147.59.6,144.721V103.515c0-2.869,1.3-4.173,4.173-4.173H6.338V94.909H7.381V21.1H6.338c0-14.6,6-20.6,20.6-20.6H68.146c14.6,0,20.6,6,20.6,20.6H87.706V94.909h1.043v4.434h1.565c2.869,0,4.173,1.3,4.173,4.173v41.206c0,2.869-1.3,4.173-4.173,4.173H88.749v14.344c0,7.3-3.13,10.171-10.171,10.171H73.362v24.776H63.191V239.39" transform="translate(-0.6 -0.5)"/>
      </g>
      <rect id="Rectangle_620" data-name="Rectangle 620" class="cls-7" width="10.171" height="14.344" transform="translate(4.955 109.013)"/>
      <text id="_1" data-name="1" class="cls-8" transform="translate(4.849 118.071)"><tspan x="0" y="0">1</tspan></text>
      <rect id="Rectangle_621" data-name="Rectangle 621" class="cls-7" width="10.171" height="14.344" transform="translate(35.208 109.013)"/>
      <text id="_2" data-name="2" class="cls-8" transform="translate(35.136 118.071)"><tspan x="0" y="0">2</tspan></text>
      <rect id="Rectangle_622" data-name="Rectangle 622" class="cls-7" width="10.171" height="14.344" transform="translate(65.46 109.013)"/>
      <text id="_3" data-name="3" class="cls-8" transform="translate(65.422 118.071)"><tspan x="0" y="0">3</tspan></text>
    </g>
    <rect id="Rectangle_1487" data-name="Rectangle 1487" class="cls-7" width="266" height="266" transform="translate(534 501)"/>
  </g>
</svg>
