<svg xmlns="http://www.w3.org/2000/svg" viewBox="1167 -11910 266 266">
  <defs>
    <style>
      .cls-1, .cls-2, .cls-3, .cls-4 {
        fill: none;
      }

      .cls-1, .cls-2, .cls-3 {
        stroke: #7579ff;
        stroke-linecap: round;
        stroke-linejoin: round;
      }

      .cls-1 {
        stroke-width: 3px;
      }

      .cls-2 {
        stroke-width: 2px;
      }

      .cls-3 {
        stroke-width: 1.5px;
      }
    </style>
  </defs>
  <g id="Slopped" transform="translate(633 -12411)">
    <g id="Slopped-2" data-name="Slopped" transform="translate(552 525)">
      <path id="Path_280" data-name="Path 280" class="cls-1" d="M.5,15.2V208.587H231.114" transform="translate(-0.5 8.49)"/>
      <line id="Line_80" data-name="Line 80" class="cls-2" y1="9.186" transform="translate(99.917 98.305)"/>
      <line id="Line_81" data-name="Line 81" class="cls-2" y2="49.797" transform="translate(148.264 98.305)"/>
      <path id="Path_281" data-name="Path 281" class="cls-3" d="M97.97,53.3l5.318,8.7H65.9l5.318-8.7Z" transform="translate(39.496 31.79)"/>
      <path id="Path_282" data-name="Path 282" class="cls-2" d="M69.3,77.762V13.3H95.73V77.762" transform="translate(41.575 7.328)"/>
      <path id="Path_283" data-name="Path 283" class="cls-2" d="M97.97.5l5.318,20.628H65.9L71.218.5Z" transform="translate(39.496 -0.5)"/>
      <path id="Path_284" data-name="Path 284" class="cls-2" d="M89.7,58.7c3.223,0,4.512,1.289,4.512,4.512" transform="translate(54.051 35.093)"/>
      <line id="Line_82" data-name="Line 82" class="cls-2" x2="39.322" transform="translate(104.429 93.793)"/>
      <path id="Path_285" data-name="Path 285" class="cls-2" d="M67.012,58.7c-3.223,0-4.512,1.289-4.512,4.512" transform="translate(37.417 35.093)"/>
      <line id="Line_83" data-name="Line 83" class="cls-1" x1="230.614" y1="193.387" transform="translate(0 23.69)"/>
    </g>
    <rect id="Rectangle_1501" data-name="Rectangle 1501" class="cls-4" width="266" height="266" transform="translate(534 501)"/>
  </g>
</svg>
