<svg xmlns="http://www.w3.org/2000/svg" viewBox="-7999.438 -369.354 40.597 27.648">
  <defs>
    <style>
      .cls-1 {
        fill: #ea495c;
      }
    </style>
  </defs>
  <path id="Path_452" data-name="Path 452" class="cls-1" d="M1208.8,429.8a21.794,21.794,0,0,0-20.3,13.824,21.815,21.815,0,0,0,40.6,0A22.156,22.156,0,0,0,1208.8,429.8Zm0,23.1a9.274,9.274,0,1,1,9.274-9.274A9.336,9.336,0,0,1,1208.8,452.9Zm0-14.7a5.638,5.638,0,0,0-5.6,5.6,5.6,5.6,0,1,0,11.2,0A5.638,5.638,0,0,0,1208.8,438.2Z" transform="translate(-9187.938 -799.154)"/>
</svg>
