<svg xmlns="http://www.w3.org/2000/svg" viewBox="-10849 -3363 118.67 118.67">
  <defs>
    <style>
      .cls-1, .cls-2 {
        fill: none;
      }

      .cls-2 {
        stroke: #ea495c;
        stroke-linecap: round;
        stroke-linejoin: round;
        stroke-miterlimit: 10;
        stroke-width: 4px;
      }
    </style>
  </defs>
  <g id="Group_2208" data-name="Group 2208" transform="translate(-10849 -3363)">
    <rect id="Rectangle_1294" data-name="Rectangle 1294" class="cls-1" width="118.67" height="118.67"/>
    <g id="money-time" transform="translate(12.324 12.324)">
      <path id="Path_635" data-name="Path 635" class="cls-2" d="M11,12V28.737C11,35.671,22.239,41.29,36.106,41.29s25.106-5.62,25.106-12.553V12" transform="translate(30.843 34.028)"/>
      <path id="Path_636" data-name="Path 636" class="cls-2" d="M11,16V32.737C11,39.671,22.239,45.29,36.106,45.29s25.106-5.62,25.106-12.553V16" transform="translate(30.843 46.765)"/>
      <ellipse id="Ellipse_144" data-name="Ellipse 144" class="cls-2" cx="25.106" cy="12.553" rx="25.106" ry="12.553" transform="translate(41.843 33.475)"/>
      <path id="Path_637" data-name="Path 637" class="cls-2" d="M17.553,5V17.553H5" transform="translate(11.737 11.737)"/>
      <path id="Path_638" data-name="Path 638" class="cls-2" d="M30.29,59.581A29.29,29.29,0,1,1,58.367,21.926" transform="translate(-1 -1)"/>
    </g>
  </g>
</svg>
