<svg xmlns="http://www.w3.org/2000/svg" viewBox="16491 -7072 148 148">
  <defs>
    <style>
      .cls-1 {
        fill: none;
      }

      .cls-2 {
        fill: #62c6f2;
      }
    </style>
  </defs>
  <g id="ic_business_black_24px" transform="translate(16491 -7072)">
    <path id="Path_237" data-name="Path 237" class="cls-1" d="M0,0H148V148H0Z"/>
    <path id="Path_238" data-name="Path 238" class="cls-2" d="M63.667,27.667V3H2V114H125.333V27.667Zm-37,74H14.333V89.333H26.667Zm0-24.667H14.333V64.667H26.667Zm0-24.667H14.333V40H26.667Zm0-24.667H14.333V15.333H26.667Zm24.667,74H39V89.333H51.333Zm0-24.667H39V64.667H51.333Zm0-24.667H39V40H51.333Zm0-24.667H39V15.333H51.333Zm61.667,74H63.667V89.333H76V77H63.667V64.667H76V52.333H63.667V40H113ZM100.667,52.333H88.333V64.667h12.333Zm0,24.667H88.333V89.333h12.333Z" transform="translate(10.333 15.5)"/>
  </g>
</svg>
