<svg xmlns="http://www.w3.org/2000/svg" viewBox="10451.212 -7074 148 148">
  <defs>
    <style>
      .cls-1 {
        fill: #62c6f2;
      }

      .cls-2 {
        fill: none;
      }
    </style>
  </defs>
  <g id="ic_radio_black_24px" transform="translate(10451.212 -7074)">
    <path id="Path_221" data-name="Path 221" class="cls-1" d="M9.647,32.758A12.225,12.225,0,0,0,2,44.167v74A12.33,12.33,0,0,0,14.333,130.5H113a12.33,12.33,0,0,0,12.333-12.333v-74A12.291,12.291,0,0,0,113,31.833H40.85l50.937-20.6L87.593,1Zm23.187,85.408a18.5,18.5,0,1,1,18.5-18.5A18.475,18.475,0,0,1,32.833,118.167ZM113,68.833H100.667V56.5H88.333V68.833h-74V44.167H113Z" transform="translate(10.333 5.167)"/>
    <path id="Path_222" data-name="Path 222" class="cls-2" d="M0,0H148V148H0Z"/>
  </g>
</svg>
