<svg xmlns="http://www.w3.org/2000/svg" xmlns:xlink="http://www.w3.org/1999/xlink" viewBox="7646.334 -14464.5 123.333 111">
  <defs>
    <style>
      .cls-1 {
        fill: url(#linear-gradient);
      }
    </style>
    <linearGradient id="linear-gradient" x1="0.5" x2="0.5" y2="1" gradientUnits="objectBoundingBox">
      <stop offset="0" stop-color="#7579ff"/>
      <stop offset="1" stop-color="#b224ef"/>
    </linearGradient>
  </defs>
  <path id="flats" class="cls-1" d="M63.667,27.667V3H2V114H125.333V27.667Zm-37,74H14.333V89.333H26.667Zm0-24.667H14.333V64.667H26.667Zm0-24.667H14.333V40H26.667Zm0-24.667H14.333V15.333H26.667Zm24.667,74H39V89.333H51.333Zm0-24.667H39V64.667H51.333Zm0-24.667H39V40H51.333Zm0-24.667H39V15.333H51.333Zm61.667,74H63.667V89.333H76V77H63.667V64.667H76V52.333H63.667V40H113ZM100.667,52.333H88.333V64.667h12.333Zm0,24.667H88.333V89.333h12.333Z" transform="translate(7644.334 -14467.5)"/>
</svg>
