<svg xmlns="http://www.w3.org/2000/svg" xmlns:xlink="http://www.w3.org/1999/xlink" viewBox="19078.023 -11851.377 94.646 108.854">
  <defs>
    <style>
      .cls-1 {
        fill: url(#linear-gradient);
      }
    </style>
    <linearGradient id="linear-gradient" x1="0.5" x2="0.5" y2="1" gradientUnits="objectBoundingBox">
      <stop offset="0" stop-color="#7579ff"/>
      <stop offset="1" stop-color="#b224ef"/>
    </linearGradient>
  </defs>
  <g id="slow_tap" data-name="slow tap" transform="translate(19078.023 -11851.377)">
    <g id="Group_1185" data-name="Group 1185" transform="translate(0)">
      <path id="Path_348" data-name="Path 348" class="cls-1" d="M117.063,54.084V35.154a2.712,2.712,0,0,0-2.7-2.7H88.172a19.4,19.4,0,0,0-11.057-8.643,4.043,4.043,0,0,0-1.966-7.583H73.8V10.817H85.965a4.056,4.056,0,1,0,0-8.113H73.8a2.7,2.7,0,0,0-5.408,0H56.219a4.056,4.056,0,0,0,0,8.113H68.388v5.408H67.036a4.053,4.053,0,0,0-1.628,7.767,19.375,19.375,0,0,0-8.556,5.754H35.938V21.633a5.408,5.408,0,0,0-10.817,0V62.2a5.408,5.408,0,1,0,10.817,0V51.38H54.394a19.369,19.369,0,0,0,36.182-5.408h7.558a2.712,2.712,0,0,1,2.7,2.7v5.408a2.712,2.712,0,0,0-2.7,2.7V62.2a2.712,2.712,0,0,0,2.7,2.7h16.225a2.712,2.712,0,0,0,2.7-2.7V56.788A2.712,2.712,0,0,0,117.063,54.084Z" transform="translate(-25.121)"/>
      <path id="Path_349" data-name="Path 349" class="cls-1" d="M279.722,287.827a11.324,11.324,0,1,0,22.648,0c0-6.255-11.325-22.5-11.325-22.5S279.722,281.572,279.722,287.827Z" transform="translate(-207.723 -190.298)"/>
    </g>
  </g>
</svg>
