<svg xmlns="http://www.w3.org/2000/svg" viewBox="3182.414 -11868.067 215.774 206.622">
  <defs>
    <style>
      .cls-1 {
        fill: #c6c6c6;
        stroke: #1d1d1b;
      }

      .cls-1, .cls-2, .cls-3, .cls-4 {
        stroke-linecap: round;
        stroke-linejoin: round;
      }

      .cls-1, .cls-2, .cls-3 {
        stroke-width: 0.5px;
      }

      .cls-2 {
        fill: #fff;
      }

      .cls-2, .cls-3, .cls-4 {
        stroke: #000;
      }

      .cls-3, .cls-4 {
        fill: none;
      }
    </style>
  </defs>
  <g id="Square" transform="translate(3182.664 -11867.817)">
    <rect id="Rectangle_627" data-name="Rectangle 627" class="cls-1" width="215.274" height="206.122" transform="translate(0 0)"/>
    <rect id="Rectangle_628" data-name="Rectangle 628" class="cls-2" width="128.907" height="128.907" transform="translate(42.281 43.828)"/>
    <line id="Line_87" data-name="Line 87" class="cls-3" x2="4.641" y2="4.641" transform="translate(144.633 135.61)"/>
    <line id="Line_88" data-name="Line 88" class="cls-3" x2="4.641" y2="4.641" transform="translate(134.965 126.071)"/>
    <line id="Line_89" data-name="Line 89" class="cls-3" y1="54.785" transform="translate(144.633 80.825)"/>
    <line id="Line_90" data-name="Line 90" class="cls-3" x1="36.481" transform="translate(88.43 137.028)"/>
    <line id="Line_91" data-name="Line 91" class="cls-3" y1="35.578" transform="translate(134.965 90.493)"/>
    <line id="Line_92" data-name="Line 92" class="cls-3" y2="44.86" transform="translate(139.606 85.852)"/>
    <line id="Line_93" data-name="Line 93" class="cls-3" x2="45.762" transform="translate(83.789 141.669)"/>
    <line id="Line_94" data-name="Line 94" class="cls-3" x2="4.641" y2="4.641" transform="translate(124.911 137.028)"/>
    <line id="Line_95" data-name="Line 95" class="cls-3" y1="4.641" x2="4.641" transform="translate(83.789 137.028)"/>
    <line id="Line_96" data-name="Line 96" class="cls-3" y1="4.641" x2="4.641" transform="translate(73.735 126.071)"/>
    <line id="Line_97" data-name="Line 97" class="cls-3" y1="4.641" x2="4.641" transform="translate(64.196 135.61)"/>
    <line id="Line_98" data-name="Line 98" class="cls-3" y1="54.785" transform="translate(68.836 80.825)"/>
    <line id="Line_99" data-name="Line 99" class="cls-3" y1="35.578" transform="translate(78.375 90.493)"/>
    <line id="Line_100" data-name="Line 100" class="cls-3" y2="44.86" transform="translate(73.735 85.852)"/>
    <line id="Line_101" data-name="Line 101" class="cls-3" y2="64.067" transform="translate(64.196 76.184)"/>
    <line id="Line_102" data-name="Line 102" class="cls-3" y1="4.641" x2="4.641" transform="translate(133.547 66.258)"/>
    <line id="Line_103" data-name="Line 103" class="cls-3" y1="4.641" x2="4.641" transform="translate(124.008 75.797)"/>
    <line id="Line_104" data-name="Line 104" class="cls-3" y1="4.641" x2="4.641" transform="translate(144.633 76.184)"/>
    <line id="Line_105" data-name="Line 105" class="cls-3" y1="4.641" x2="4.641" transform="translate(134.965 85.852)"/>
    <rect id="Rectangle_629" data-name="Rectangle 629" class="cls-4" width="99.129" height="99.258" transform="translate(57.106 58.653)"/>
    <line id="Line_106" data-name="Line 106" class="cls-3" x1="53.754" transform="translate(79.793 70.899)"/>
    <line id="Line_107" data-name="Line 107" class="cls-3" x2="63.035" transform="translate(75.153 66.258)"/>
    <line id="Line_108" data-name="Line 108" class="cls-3" x1="34.547" transform="translate(89.461 80.438)"/>
    <line id="Line_109" data-name="Line 109" class="cls-3" x2="43.828" transform="translate(84.821 75.797)"/>
    <line id="Line_110" data-name="Line 110" class="cls-3" x2="4.641" y2="4.641" transform="translate(75.153 66.258)"/>
    <line id="Line_111" data-name="Line 111" class="cls-3" x2="4.641" y2="4.641" transform="translate(64.196 76.184)"/>
    <line id="Line_112" data-name="Line 112" class="cls-3" x2="4.641" y2="4.641" transform="translate(84.821 75.797)"/>
    <line id="Line_113" data-name="Line 113" class="cls-3" x2="4.641" y2="4.641" transform="translate(73.735 85.852)"/>
  </g>
</svg>
