<svg xmlns="http://www.w3.org/2000/svg" xmlns:xlink="http://www.w3.org/1999/xlink" viewBox="0 0 960 1026">
  <defs>
    <style>
      .cls-1 {
        fill: none;
      }

      .cls-2 {
        clip-path: url(#clip-path);
      }

      .cls-3 {
        fill: #ea495c;
        opacity: 0.14;
      }
    </style>
    <clipPath id="clip-path">
      <rect id="Rectangle_2400" data-name="Rectangle 2400" class="cls-1" width="960" height="1026" transform="translate(5826 4592)"/>
    </clipPath>
  </defs>
  <g id="Mask_Group_1" data-name="Mask Group 1" class="cls-2" transform="translate(-5826 -4592)">
    <rect id="Rectangle_2399" data-name="Rectangle 2399" class="cls-3" width="1085" height="758" rx="80" transform="translate(5825.701 4892.807) rotate(-17)"/>
  </g>
</svg>
