<svg xmlns="http://www.w3.org/2000/svg" viewBox="1885.5 -22061.973 228.57 165.295">
  <defs>
    <style>
      .cls-1, .cls-2 {
        fill: none;
      }

      .cls-1 {
        stroke: #ee4392;
        stroke-width: 5px;
      }

      .cls-3, .cls-4 {
        stroke: none;
      }

      .cls-4 {
        fill: #ee4392;
      }
    </style>
  </defs>
  <g id="Group_1778" data-name="Group 1778" transform="translate(633 -22589)">
    <path id="gas" class="cls-1" d="M830.676,202.2c2.294,2.149,4.661,4.334,6.956,6.555,12.309,11.763,24.29,23.853,34.815,37.255,8.995,11.435,16.643,23.635,21.086,37.619,3.9,12.309,5.681,24.946,3.642,37.765-3.023,18.973-16.9,35.143-35.908,39.7-.91.218-1.857.364-3.132.619.437-.473.619-.728.874-.947,9.833-7.866,15.7-18.209,18.536-30.3,4.079-17.408.328-33.5-8.777-48.544-5.353-8.813-14.094-18.791-20.831-24.072,2.476,20.175-2.258,38.53-12.491,56.156-1.238-10.088-5.135-18.318-12.528-24.91a6.888,6.888,0,0,0-.437.983c-1.748,6.992-4.661,13.475-7.793,19.92a70.456,70.456,0,0,0-6.191,17.08c-2,10.233.983,18.937,7.466,26.694,1.967,2.367,4.224,4.552,6.264,7.065-3.35-1.53-6.737-2.95-10.015-4.661a51.6,51.6,0,0,1-19.01-16.5c-5.608-8.23-7.939-17.408-7.9-27.313a67.634,67.634,0,0,1,5.936-26.475c4.625-10.852,10.925-20.794,16.9-30.918,6.446-10.962,12.528-22.142,16.752-34.16,2.149-6.082,3.824-12.309,5.79-18.609" transform="translate(469.701 326.652)"/>
    <g id="elec" transform="translate(1379.797 534.806)">
      <g id="Union_2" data-name="Union 2" class="cls-2" transform="translate(4012.797 528.806)">
        <path class="cls-3" d="M-3967.83-374.775a.64.64,0,0,1-.417-.174l-12.972-11.3a.687.687,0,0,1-.208-.486v-14.12a.557.557,0,0,1,.625-.591h36.1a.623.623,0,0,1,.626.626v14.641a.658.658,0,0,1-.174.452l-10.781,10.781a.662.662,0,0,1-.452.174Zm-12.485-33.491a.646.646,0,0,1-.278-.069l-4.939-3.164a.444.444,0,0,1-.243-.452c.173-1.843.625-12.137-9.53-27.614l-.556-.834a50.4,50.4,0,0,1-16.937-37.768,50.642,50.642,0,0,1,50.636-50.637,50.628,50.628,0,0,1,50.637,50.671,50.458,50.458,0,0,1-14.051,34.987l-.939,1.321c-4.347,5.6-12.486,17.632-12.242,28.97a.562.562,0,0,1-.173.383l-5.008,4.1a.485.485,0,0,1-.313.1Zm22.327-99.6-25.8,37.143a.5.5,0,0,0,.417.8h14.781a.5.5,0,0,1,.487.556l-2.226,22.572a.472.472,0,0,0,.869.312l30.118-38.221a.5.5,0,0,0-.383-.8l-16.206-.347a4.258,4.258,0,0,1-4.07-4.974l2.922-16.658a.5.5,0,0,0-.49-.609A.5.5,0,0,0-3957.987-507.87Z"/>
        <path class="cls-4" d="M -3957.27587890625 -379.7754516601563 L -3949.075439453125 -387.9758605957031 L -3949.075439453125 -396.449951171875 L -3976.427001953125 -396.449951171875 L -3976.427001953125 -388.7087707519531 L -3966.174072265625 -379.7754516601563 L -3957.27587890625 -379.7754516601563 M -3945.85009765625 -413.2668762207031 L -3943.71240234375 -415.0185546875 C -3943.033935546875 -426.9237060546875 -3935.313232421875 -438.6295166015625 -3930.528564453125 -444.8079223632813 L -3929.650634765625 -446.0439147949219 L -3929.4384765625 -446.3423156738281 L -3929.185302734375 -446.6066589355469 C -3925.2080078125 -450.7590637207031 -3922.0888671875 -455.5533142089844 -3919.914794921875 -460.8562316894531 C -3917.66455078125 -466.3442687988281 -3916.523681640625 -472.1576843261719 -3916.523681640625 -478.135009765625 C -3916.523681640625 -484.3138732910156 -3917.72998046875 -490.3015441894531 -3920.109375 -495.9317016601563 C -3922.407470703125 -501.369873046875 -3925.69873046875 -506.25341796875 -3929.89208984375 -510.4466857910156 C -3934.083740234375 -514.6382446289063 -3938.964599609375 -517.92822265625 -3944.39892578125 -520.2252197265625 C -3950.020751953125 -522.6013793945313 -3955.996826171875 -523.8062133789063 -3962.16064453125 -523.8062133789063 C -3968.322265625 -523.8062133789063 -3974.297607421875 -522.60009765625 -3979.92041015625 -520.2213745117188 C -3985.35400390625 -517.9227294921875 -3990.235107421875 -514.6310424804688 -3994.428466796875 -510.4378051757813 C -3998.62158203125 -506.2445373535156 -4001.9130859375 -501.3632507324219 -4004.2119140625 -495.9295349121094 C -4006.590576171875 -490.3065185546875 -4007.796630859375 -484.3311157226563 -4007.796630859375 -478.1692504882813 C -4007.796630859375 -471.5459289550781 -4006.412109375 -465.1644592285156 -4003.681884765625 -459.2020568847656 C -4002.371337890625 -456.3406066894531 -4000.75439453125 -453.604248046875 -3998.8759765625 -451.0689392089844 C -3997.0107421875 -448.5518798828125 -3994.8779296875 -446.219482421875 -3992.536376953125 -444.1365051269531 L -3992.055908203125 -443.7091979980469 L -3991.699462890625 -443.1742553710938 L -3991.1435546875 -442.3403930664063 L -3991.13330078125 -442.3252258300781 L -3991.123291015625 -442.3099670410156 C -3982.566162109375 -429.2688598632813 -3980.904052734375 -419.3981628417969 -3980.729248046875 -414.3623352050781 L -3979.01953125 -413.2668762207031 L -3945.85009765625 -413.2668762207031 M -3975.30419921875 -447.3399658203125 L -3973.56982421875 -464.9273071289063 L -3983.374755859375 -464.9273071289063 C -3985.44189453125 -464.9273071289063 -3987.31689453125 -466.0634155273438 -3988.268310546875 -467.8922729492188 C -3989.217041015625 -469.7162780761719 -3989.072509765625 -471.8978881835938 -3987.891845703125 -473.588623046875 L -3962.093505859375 -510.7227783203125 L -3962.093505859375 -510.7227783203125 C -3961.0615234375 -512.2089233398438 -3959.3720703125 -513.0958862304688 -3957.57275390625 -513.0958862304688 C -3955.928466796875 -513.0958862304688 -3954.38427734375 -512.3709106445313 -3953.33544921875 -511.1068420410156 C -3952.298095703125 -509.8563537597656 -3951.871337890625 -508.2190246582031 -3952.160888671875 -506.6077880859375 L -3954.92724609375 -490.8348388671875 L -3939.6484375 -490.5072631835938 C -3937.569580078125 -490.4776611328125 -3935.718017578125 -489.3050231933594 -3934.802490234375 -487.4319152832031 C -3933.87158203125 -485.5269775390625 -3934.10107421875 -483.3061828613281 -3935.4013671875 -481.6361999511719 L -3935.410400390625 -481.6248474121094 L -3935.419189453125 -481.6135559082031 L -3965.445068359375 -443.5093078613281 C -3966.473388671875 -442.0924072265625 -3968.092041015625 -441.2586975097656 -3969.85498046875 -441.2586975097656 C -3971.44677734375 -441.2588195800781 -3972.958740234375 -441.9493103027344 -3974.003173828125 -443.1531066894531 C -3975.004150390625 -444.3069458007813 -3975.4736328125 -445.8243103027344 -3975.30419921875 -447.3399658203125 M -3955.482666015625 -374.7754516601563 L -3967.82958984375 -374.7754516601563 C -3967.968505859375 -374.7754516601563 -3968.141845703125 -374.8449401855469 -3968.24658203125 -374.9496765136719 L -3981.21875 -386.2521362304688 C -3981.357666015625 -386.39111328125 -3981.427001953125 -386.5653381347656 -3981.427001953125 -386.7385559082031 L -3981.427001953125 -400.8587951660156 C -3981.427001953125 -401.1732482910156 -3981.199462890625 -401.4596862792969 -3980.898681640625 -401.4596862792969 C -3980.866943359375 -401.4596862792969 -3980.834716796875 -401.45654296875 -3980.8017578125 -401.449951171875 L -3944.701904296875 -401.449951171875 C -3944.353515625 -401.449951171875 -3944.075439453125 -401.1719970703125 -3944.075439453125 -400.8235473632813 L -3944.075439453125 -386.1826477050781 C -3944.075439453125 -386.0084228515625 -3944.14501953125 -385.8341979980469 -3944.249755859375 -385.73046875 L -3955.030517578125 -374.9496765136719 C -3955.13525390625 -374.8449401855469 -3955.3095703125 -374.7754516601563 -3955.482666015625 -374.7754516601563 Z M -3944.249755859375 -408.2668762207031 L -3980.314208984375 -408.2668762207031 C -3980.4189453125 -408.2668762207031 -3980.522705078125 -408.3011169433594 -3980.59228515625 -408.3363647460938 L -3985.531005859375 -411.5006103515625 C -3985.705078125 -411.6053466796875 -3985.808837890625 -411.778564453125 -3985.773681640625 -411.9527893066406 C -3985.600341796875 -413.7957458496094 -3985.148193359375 -424.0901184082031 -3995.3037109375 -439.56689453125 L -3995.859619140625 -440.4007568359375 C -4006.2587890625 -449.6517944335938 -4012.796630859375 -463.1456298828125 -4012.796630859375 -478.1692504882813 C -4012.796630859375 -506.1307983398438 -3990.121337890625 -528.8062133789063 -3962.16064453125 -528.8062133789063 C -3934.19921875 -528.8062133789063 -3911.523681640625 -506.1660461425781 -3911.523681640625 -478.135009765625 C -3911.523681640625 -464.5716552734375 -3916.87939453125 -452.2258911132813 -3925.574462890625 -443.1480712890625 L -3926.51318359375 -441.8267822265625 C -3930.860595703125 -436.2274169921875 -3938.998779296875 -424.1948547363281 -3938.755126953125 -412.8571472167969 C -3938.755126953125 -412.7181701660156 -3938.82470703125 -412.5791931152344 -3938.928466796875 -412.4744567871094 L -3943.9365234375 -408.37060546875 C -3944.006103515625 -408.3011169433594 -3944.14501953125 -408.2668762207031 -3944.249755859375 -408.2668762207031 Z M -3957.57275390625 -508.0958557128906 C -3957.72412109375 -508.0958557128906 -3957.878662109375 -508.02685546875 -3957.9873046875 -507.8700256347656 L -3983.791748046875 -470.7269287109375 C -3984.035400390625 -470.3794860839844 -3983.791748046875 -469.9273071289063 -3983.374755859375 -469.9273071289063 L -3968.593994140625 -469.9273071289063 C -3968.31591796875 -469.9273071289063 -3968.072265625 -469.68359375 -3968.107421875 -469.3713989257813 L -3970.333251953125 -446.7997436523438 C -3970.3779296875 -446.4858093261719 -3970.11865234375 -446.2587280273438 -3969.8544921875 -446.2586975097656 C -3969.709228515625 -446.2586669921875 -3969.562744140625 -446.3272094726563 -3969.464111328125 -446.487548828125 L -3939.346435546875 -484.7082214355469 C -3939.1025390625 -485.0214233398438 -3939.31103515625 -485.5078430175781 -3939.72900390625 -485.5078430175781 L -3955.934814453125 -485.8552856445313 C -3958.509033203125 -485.9247741699219 -3960.455810546875 -488.2904052734375 -3960.004638671875 -490.8292541503906 L -3957.0830078125 -507.4873352050781 C -3957.0146484375 -507.8511047363281 -3957.287841796875 -508.0958557128906 -3957.57275390625 -508.0958557128906 Z"/>
      </g>
    </g>
  </g>
</svg>
