<svg xmlns="http://www.w3.org/2000/svg" xmlns:xlink="http://www.w3.org/1999/xlink" viewBox="19922.5 -22042.334 111 98.666">
  <defs>
    <style>
      .cls-1 {
        fill: url(#linear-gradient);
      }
    </style>
    <linearGradient id="linear-gradient" x1="0.5" x2="0.5" y2="1" gradientUnits="objectBoundingBox">
      <stop offset="0" stop-color="#ff5858"/>
      <stop offset="1" stop-color="#ee4392"/>
    </linearGradient>
  </defs>
  <path id="Bunglow" class="cls-1" d="M107.833,4H9.167V16.333h98.667ZM114,65.667V53.333L107.833,22.5H9.167L3,53.333V65.667H9.167v37H70.833v-37H95.5v37h12.333v-37ZM58.5,90.333h-37V65.667h37Z" transform="translate(19919.5 -22046.333)"/>
</svg>
