<svg xmlns="http://www.w3.org/2000/svg" viewBox="1486 -22099 222 222">
  <defs>
    <style>
      .cls-1, .cls-2 {
        fill: none;
      }

      .cls-1 {
        stroke: #ea495c;
        stroke-width: 5px;
      }
    </style>
  </defs>
  <g id="gas" transform="translate(633 -22589)">
    <path id="gas-2" data-name="gas" class="cls-1" d="M835.17,202.2c2.521,2.361,5.123,4.763,7.645,7.2,13.528,12.928,26.7,26.216,38.263,40.945,9.886,12.568,18.291,25.976,23.174,41.345,4.282,13.528,6.244,27.417,4,41.505-3.322,20.853-18.571,38.623-39.464,43.626-1,.24-2.041.4-3.442.68.48-.52.68-.8.961-1.041,10.807-8.645,17.25-20.012,20.372-33.3,4.483-19.132.36-36.822-9.646-53.352-5.883-9.686-15.489-20.652-22.894-26.456,2.722,22.173-2.482,42.345-13.728,61.717-1.361-11.087-5.643-20.132-13.768-27.376a7.579,7.579,0,0,0-.48,1.081c-1.921,7.685-5.123,14.809-8.565,21.893a77.428,77.428,0,0,0-6.8,18.771c-2.2,11.247,1.081,20.813,8.2,29.338,2.161,2.6,4.643,5,6.884,7.765-3.682-1.681-7.4-3.242-11.007-5.123a56.706,56.706,0,0,1-20.893-18.131c-6.164-9.045-8.725-19.132-8.685-30.018.04-10.206,2.562-19.812,6.524-29.1,5.083-11.927,12.007-22.854,18.571-33.98,7.084-12.047,13.768-24.335,18.411-37.543,2.362-6.684,4.2-13.528,6.364-20.452" transform="translate(112.701 306.801)"/>
    <rect id="Rectangle_1334" data-name="Rectangle 1334" class="cls-2" width="222" height="222" transform="translate(853 490)"/>
  </g>
</svg>
