<svg xmlns="http://www.w3.org/2000/svg" viewBox="13825 -22145 232 275.584">
  <defs>
    <style>
      .cls-1, .cls-3 {
        fill: #ea495c;
      }

      .cls-1 {
        font-size: 43px;
        font-family: Quicksand-Regular, Quicksand;
      }

      .cls-2, .cls-4 {
        fill: none;
      }

      .cls-2 {
        stroke: #ea495c;
        stroke-linecap: round;
        stroke-linejoin: round;
        stroke-miterlimit: 10;
        stroke-width: 4px;
      }
    </style>
  </defs>
  <g id="Other" transform="translate(12573 -22589)">
    <text id="I_dont_know" data-name="I dont know" class="cls-1" transform="translate(1368 708.584)"><tspan x="-115.455" y="0">I dont know</tspan></text>
    <g id="Other-2" data-name="Other" transform="translate(-5 -46)">
      <g id="Other-3" data-name="Other" transform="translate(1307 535)">
        <circle id="Ellipse_115" data-name="Ellipse 115" class="cls-2" cx="65.076" cy="65.076" r="65.076" transform="translate(1 1)"/>
        <path id="Path_530" data-name="Path 530" class="cls-2" d="M25.726,54.328V42.5A18.124,18.124,0,0,0,43.474,24.748,18.124,18.124,0,0,0,25.726,7C18.662,7,11.87,12.283,9.208,18.365" transform="translate(40.351 29.496)"/>
        <circle id="Ellipse_116" data-name="Ellipse 116" class="cls-3" cx="5.916" cy="5.916" r="5.916" transform="translate(60.16 95.656)"/>
      </g>
      <rect id="Rectangle_1350" data-name="Rectangle 1350" class="cls-4" width="222" height="222" transform="translate(1262 490)"/>
    </g>
  </g>
</svg>
