<svg xmlns="http://www.w3.org/2000/svg" xmlns:xlink="http://www.w3.org/1999/xlink" viewBox="23804 -22091 172.402 172">
  <defs>
    <style>
      .cls-1 {
        fill: none;
      }

      .cls-2 {
        fill: url(#linear-gradient);
      }
    </style>
    <linearGradient id="linear-gradient" x1="1" y1="-5.913" x2="0.5" y2="1" gradientUnits="objectBoundingBox">
      <stop offset="0" stop-color="#f578dc"/>
      <stop offset="1" stop-color="#ea495c"/>
    </linearGradient>
  </defs>
  <g id="ic_group_add_black_24px" transform="translate(23804 -22091)">
    <path id="Path_492" data-name="Path 492" class="cls-1" d="M0,0H172V172H0Z"/>
    <path id="Path_493" data-name="Path 493" class="cls-2" d="M114.667,40.769h21.5V19.308H150.5V40.769H172V55.077H150.5V76.538H136.167V55.077h-21.5ZM43,47.923A21.462,21.462,0,1,1,49.522,6a35.256,35.256,0,0,0-6.45,20.46,35.95,35.95,0,0,0,6.45,20.46A21.462,21.462,0,0,1,43,47.923Zm35.833,0a21.462,21.462,0,1,1,21.5-21.462A21.391,21.391,0,0,1,78.833,47.923ZM31.39,63.375C25.442,68.6,21.5,75.251,21.5,83.692V98H0V83.692C0,72.675,16.985,65.879,31.39,63.375Zm47.443-1.145c14.333,0,43,7.154,43,21.462V98h-86V83.692C35.833,69.385,64.5,62.231,78.833,62.231Z" transform="translate(0.402 34.192)"/>
  </g>
</svg>
