<svg xmlns="http://www.w3.org/2000/svg" viewBox="9689.834 -11869.45 322.217 209.965">
  <defs>
    <style>
      .cls-1, .cls-4 {
        fill: none;
      }

      .cls-1, .cls-3, .cls-4 {
        stroke: #000;
      }

      .cls-1, .cls-2, .cls-3, .cls-4 {
        stroke-linecap: round;
        stroke-linejoin: round;
      }

      .cls-1 {
        stroke-width: 0.75px;
      }

      .cls-2 {
        fill: #c6c6c6;
        stroke: #1d1d1b;
      }

      .cls-3 {
        fill: #fff;
      }
    </style>
  </defs>
  <g id="Covered_Flue_No" data-name="Covered Flue No" transform="translate(9690.334 -11868.95)">
    <rect id="Rectangle_921" data-name="Rectangle 921" class="cls-1" width="3.195" height="18.007" transform="translate(150.298 71.882)"/>
    <path id="Path_318" data-name="Path 318" class="cls-1" d="M109.395,63.308,106.2,65.2V51.4l3.195,1.888Z" transform="translate(47.293 22.515)"/>
    <path id="Path_319" data-name="Path 319" class="cls-1" d="M108.4,52.8h24.106l-5.373,9.729H108.4" transform="translate(48.288 23.148)"/>
    <rect id="Rectangle_922" data-name="Rectangle 922" class="cls-2" width="150.443" height="208.965" transform="translate(0 0)"/>
    <rect id="Rectangle_923" data-name="Rectangle 923" class="cls-3" width="60.555" height="134.47" transform="translate(11.908 65.492)"/>
    <rect id="Rectangle_924" data-name="Rectangle 924" class="cls-1" width="45.598" height="55.908" transform="translate(19.168 73.043)"/>
    <rect id="Rectangle_925" data-name="Rectangle 925" class="cls-1" width="45.598" height="55.908" transform="translate(19.168 136.067)"/>
    <rect id="Rectangle_926" data-name="Rectangle 926" class="cls-3" width="65.202" height="3.776" transform="translate(10.165 199.962)"/>
    <line id="Line_133" data-name="Line 133" class="cls-4" x2="321.217" transform="translate(0 208.965)"/>
  </g>
</svg>
