<svg xmlns="http://www.w3.org/2000/svg" viewBox="19119.193 -14499.634 291.881 212.648">
  <defs>
    <style>
      .cls-1 {
        fill: #c6c6c6;
        stroke: #1d1d1b;
        stroke-width: 0.5px;
      }

      .cls-1, .cls-2, .cls-3 {
        stroke-linecap: round;
        stroke-linejoin: round;
      }

      .cls-2 {
        fill: #fff;
      }

      .cls-2, .cls-3 {
        stroke: #000;
      }

      .cls-3 {
        fill: none;
      }
    </style>
  </defs>
  <g id="Roof" transform="translate(19119.443 -14499.634)">
    <path id="Path_270" data-name="Path 270" class="cls-1" d="M.3,206.645H291.683V15.8h-100.4Z" transform="translate(-0.3 5.754)"/>
    <path id="Path_271" data-name="Path 271" class="cls-2" d="M115.3,43.2" transform="translate(41.577 15.731)"/>
    <path id="Path_272" data-name="Path 272" class="cls-3" d="M73.8,0" transform="translate(26.465)"/>
    <path id="Path_273" data-name="Path 273" class="cls-2" d="M94.5,91.5h-9v21.008h58.931V91.5h-9" transform="translate(30.726 33.32)"/>
    <path id="Path_274" data-name="Path 274" class="cls-2" d="M100,80.1l-4.5,7.23h31.648l-4.5-7.23Z" transform="translate(34.367 29.169)"/>
    <path id="Path_275" data-name="Path 275" class="cls-2" d="M121.272,94.7V40H98.9V94.7" transform="translate(35.605 14.566)"/>
    <path id="Path_276" data-name="Path 276" class="cls-2" d="M100,27.2,95.5,44.661h31.648l-4.5-17.461Z" transform="translate(34.367 9.905)"/>
    <path id="Path_277" data-name="Path 277" class="cls-2" d="M133.025,104.771c0,3.683-7.23,4.229-9.413,4.638a60.287,60.287,0,0,1-11.05.818,75.3,75.3,0,0,1-11.05-.818c-2.183-.409-9.413-.955-9.413-4.638V89.22c0-2.728,1.091-3.82,3.82-3.82h33.422c2.728,0,3.82,1.091,3.82,3.82v15.551Z" transform="translate(33.129 31.098)"/>
  </g>
</svg>
