<svg xmlns="http://www.w3.org/2000/svg" viewBox="-8500 2382 35 35">
  <defs>
    <style>
      .cls-1, .cls-2 {
        fill: none;
      }

      .cls-1 {
        stroke: #fff;
        stroke-linecap: round;
        stroke-linejoin: round;
        stroke-miterlimit: 10;
        stroke-width: 2px;
      }
    </style>
  </defs>
  <g id="Group_2273" data-name="Group 2273" transform="translate(-9327 1213)">
    <g id="Last-Reading" transform="translate(833 1174.3)">
      <path id="Path_642" data-name="Path 642" class="cls-1" d="M22,12A10,10,0,1,1,12,2a9.836,9.836,0,0,1,8.9,5.5"/>
      <path id="Path_643" data-name="Path 643" class="cls-1" d="M21.8,1.7,21,7.6l-6-.8"/>
      <path id="Path_644" data-name="Path 644" class="cls-1" d="M12,7v5H7"/>
    </g>
    <rect id="Rectangle_1384" data-name="Rectangle 1384" class="cls-2" width="35" height="35" transform="translate(827 1169)"/>
  </g>
</svg>
