<svg xmlns="http://www.w3.org/2000/svg" viewBox="4635 -7036.148 226.069 159.985">
  <defs>
    <style>
      .cls-1 {
        fill: #62c6f2;
      }

      .cls-2 {
        fill: #64c7f2;
      }
    </style>
  </defs>
  <g id="Both" transform="translate(-4766 -3700)">
    <path id="gas" class="cls-1" d="M830.676,202.2c2.294,2.149,4.661,4.334,6.956,6.555,12.309,11.763,24.29,23.853,34.815,37.255,8.995,11.435,16.643,23.635,21.086,37.619,3.9,12.309,5.681,24.946,3.642,37.765-3.023,18.973-16.9,35.143-35.908,39.7-.91.218-1.857.364-3.132.619.437-.473.619-.728.874-.947,9.833-7.866,15.7-18.209,18.536-30.3,4.079-17.408.328-33.5-8.777-48.544-5.353-8.813-14.094-18.791-20.831-24.072,2.476,20.175-2.258,38.53-12.491,56.156-1.238-10.088-5.135-18.318-12.528-24.91a6.888,6.888,0,0,0-.437.983c-1.748,6.992-4.661,13.475-7.793,19.92a70.456,70.456,0,0,0-6.191,17.08c-2,10.233.983,18.937,7.466,26.694,1.967,2.367,4.224,4.552,6.264,7.065-3.35-1.53-6.737-2.95-10.015-4.661a51.6,51.6,0,0,1-19.01-16.5c-5.608-8.23-7.939-17.408-7.9-27.313a67.634,67.634,0,0,1,5.936-26.475c4.625-10.852,10.925-20.794,16.9-30.918,6.446-10.962,12.528-22.142,16.752-34.16,2.149-6.082,3.824-12.309,5.79-18.609" transform="translate(8615.701 -3538.348)"/>
    <g id="elec" transform="translate(9525.797 -3330.194)">
      <path id="Path_109" data-name="Path 109" class="cls-2" d="M1442.436,199.7a50.619,50.619,0,0,0-33.7,88.405l.556.835c10.155,15.476,9.7,25.77,9.529,27.614a.445.445,0,0,0,.243.452L1424,320.17a.656.656,0,0,0,.278.07h36.064a.486.486,0,0,0,.313-.1l5.008-4.1a.559.559,0,0,0,.174-.383c-.244-11.338,7.895-23.371,12.242-28.97l.939-1.322a50.646,50.646,0,0,0-36.586-85.658m-8.173,82.006,2.226-22.571a.5.5,0,0,0-.487-.556h-14.781a.5.5,0,0,1-.417-.8l25.8-37.143a.5.5,0,0,1,.9.383l-2.921,16.659a4.257,4.257,0,0,0,4.069,4.973l16.206.348a.5.5,0,0,1,.383.8l-30.118,38.221A.472.472,0,0,1,1434.264,281.706Z" transform="translate(-1391.8 -199.7)"/>
      <path id="Path_110" data-name="Path 110" class="cls-2" d="M1482,566.473v14.12a.687.687,0,0,0,.208.487l12.972,11.3a.642.642,0,0,0,.417.174h12.346a.661.661,0,0,0,.452-.174l10.781-10.781a.661.661,0,0,0,.174-.452V566.508a.624.624,0,0,0-.626-.626h-36.1A.557.557,0,0,0,1482,566.473Z" transform="translate(-1450.63 -438.525)"/>
    </g>
  </g>
</svg>
