<svg xmlns="http://www.w3.org/2000/svg" viewBox="16201 -7072 148 148">
  <defs>
    <style>
      .cls-1 {
        fill: #62c6f2;
      }

      .cls-2 {
        fill: none;
      }
    </style>
  </defs>
  <g id="Semi_Detached" data-name="Semi Detached" transform="translate(16201 -7072)">
    <g id="Group_762" data-name="Group 762" transform="translate(8.669 18.034)">
      <g id="Group_761" data-name="Group 761">
        <path id="Path_233" data-name="Path 233" class="cls-1" d="M94.287,6.5H46.605v0L1.4,52.517H15.023V93.559H37.316V62.466H55.274V93.559H85V62.466h17.958V93.559h22.912V52.517h13Z" transform="translate(-1.4 15.887)"/>
        <path id="Path_234" data-name="Path 234" class="cls-1" d="M32.231,2.9,8.7,25.287H56.382Z" transform="translate(36.505 -2.9)"/>
      </g>
      <path id="Path_235" data-name="Path 235" class="cls-1" d="M0,0H17.958V35.445H0Z" transform="translate(13.623 29.849)"/>
      <path id="Path_236" data-name="Path 236" class="cls-1" d="M0,0H17.958V35.445H0Z" transform="translate(105.891 29.849)"/>
    </g>
    <rect id="Rectangle_613" data-name="Rectangle 613" class="cls-2" width="148" height="148"/>
  </g>
</svg>
