<?xml version="1.0" encoding="utf-8"?>
<!-- Generator: Adobe Illustrator 22.1.0, SVG Export Plug-In . SVG Version: 6.00 Build 0)  -->
<svg version="1.1" id="Layer_1" xmlns="http://www.w3.org/2000/svg" xmlns:xlink="http://www.w3.org/1999/xlink" x="0px" y="0px"
	 viewBox="0 0 24 24" style="enable-background:new 0 0 24 24;" xml:space="preserve">
<style type="text/css">
	.st0{fill:#FFFFFF;}
</style>
<title  id="simpleicons-twitter-icon">Twitter icon</title>
<path class="st0" d="M0,0v24h24V0H0z M18,9c0,0.1,0,0.3,0,0.4c0,4.1-3.1,8.7-8.7,8.7c-1.7,0-3.4-0.5-4.7-1.4c0.2,0,0.5,0,0.7,0
	c1.4,0,2.8-0.5,3.8-1.3c-1.3,0-2.5-0.9-2.9-2.1c0.2,0,0.4,0.1,0.6,0.1c0.3,0,0.6,0,0.8-0.1c-1.4-0.3-2.5-1.5-2.5-3v0
	c0.4,0.2,0.9,0.4,1.4,0.4C5.7,10,5.1,9.1,5.1,8c0-0.6,0.1-1.1,0.4-1.5C7,8.3,9.3,9.6,11.9,9.7c-0.1-0.2-0.1-0.5-0.1-0.7
	c0-1.7,1.4-3.1,3.1-3.1c0.9,0,1.7,0.4,2.2,1c0.7-0.1,1.4-0.4,2-0.7c-0.2,0.7-0.7,1.3-1.4,1.7c0.6-0.1,1.2-0.2,1.8-0.5l0,0
	C19.1,8,18.6,8.5,18,9z"/>
</svg>
